ENTRY       G00002                      Glycan
NODE        3
            1   PP-Dol      7     0
            2   GlcNAc      0     0
            3   GlcNAc     -8     0
EDGE        2
            1     2:a1    1    
            2     3:b1    2:4  
///
