ENTRY       G00373                      Glycan
NODE        3
            1   GlcA        0     0
            2   LAra      -10     0
            3   LRha      -20     0
EDGE        2
            1     2:a1    1:2  
            2     3:a1    2:2  
///
