ENTRY       G00577                      Glycan
NODE        3
            1   Dig      11.1  -0.1
            2   Dig       3.1  -0.1
            3   2,6dribHex3Me4Me -10.9  -0.1
EDGE        2
            1     2:b1    1:4  
            2     3:b1    2:4  
///
