ENTRY       G00544                      Glycan
NODE        3
            1   P          10     0
            2   GlcN        0     0
            3   GlcN      -10     0
EDGE        2
            1     2:a1    1    
            2     3:b1    2:6  
///
