ENTRY       G00609                      Glycan
NODE        10
            1   GlcN       20     0
            2   S          15     6
            3   S          15    -6
            4   LIdoA       7     0
            5   S           2    -6
            6   GlcN       -6     0
            7   S          -6    -6
            8   S         -12     6
            9   S         -12    -6
            10  GlcA      -20     0
EDGE        9
            1     2       1:6  
            2     3       1:2  
            3     4:a1    1:4  
            4     5       4:2  
            5     6:a1    4:4  
            6     8       6:6  
            7     9       6:3  
            8    10:b1    6:4  
            9     6:2     7    
///
