ENTRY       G00665                      Glycan
NODE        8
            1   GlcNAc     21    -2
            2   GlcNAc     11    -2
            3   Man         2    -2
            4   Man        -6     2
            5   Man        -6    -6
            6   Man       -14     6
            7   Man       -14    -2
            8   Man       -22    -2
EDGE        7
            1     2:b1    1:4  
            2     3:b1    2:4  
            3     4:a1    3:6  
            4     5:a1    3:3  
            5     6:a1    4:6  
            6     7:a1    4:3  
            7     8:a1    7:2  
///
