ENTRY       G00693                      Glycan
NODE        3
            1   GlcN        0     0
            2   GlcN      -10     0
            3   Kdo       -20     0
EDGE        2
            1     2:b1    1:6  
            2     3:a2    2:6  
///
