ENTRY       G00659                      Glycan
NODE        9
            1   GlcNAc      0     0
            2   GlcNAc    -10     0
            3   Man       -20     0
            4   Man       -30     5
            5   Man       -30    -5
            6   Man       -40    10
            7   Man       -40     0
            8   GlcNAc    -40    -5
            9   Gal       -50    -5
EDGE        8
            1     2:b1    1:4  
            2     3:b1    2:4  
            3     4:a1    3:6  
            4     5:a1    3:3  
            5     6:a1    4:6  
            6     7:a1    4:3  
            7     8:b1    5:2  
            8     9:b1    8:4  
///
