ENTRY       G00755                      Glycan
NODE        6
            1   Glc        20     0
            2   Glc        12     0
            3   Glc         4     0
            4   Glc        -4     0
            5   Glc       -12     0
            6   Glc       -20     0
EDGE        5
            1     2:a1    1:4  
            2     3:a1    2:4  
            3     4:a1    3:4  
            4     5:a1    4:4  
            5     6:a1    5:4  
///
