ENTRY       G00871                      Glycan
NODE        3
            1   Glc         8     0
            2   Glc         0     0
            3   Glc        -8     0
EDGE        2
            1     2:a1    1:4  
            2     3:a1    2:3  
///
