ENTRY       G00876                      Glycan
NODE        14
            1   GlcNAc     25    -1
            2   Man        15    -1
            3   Man         5     5
            4   Man         5    -6
            5   Man        -5     9
            6   Man        -5     2
            7   Man        -5    -3
            8   Man        -5    -9
            9   Man       -15     9
            10  Man       -15    -3
            11  Man       -15    -9
            12  Man       -25     9
            13  Man       -25    -3
            14  Man       -25    -9
EDGE        13
            1     2:b1    1:4  
            2     3:a1    2:6  
            3     4:a1    2:3  
            4     5:a1    3:6  
            5     6:a1    3:3  
            6     7:a1    4:6  
            7     8:a1    4:2  
            8     9:a1    5:2  
            9    10:a1    7:2  
            10   11:a1    8:2  
            11   12:a1    9:3  
            12   13:a1   10:3  
            13   14:a1   11:3  
///
