ENTRY       G00932                      Glycan
NODE        10
            1   LIdoA      19     1
            2   S          13    -5
            3   GlcN        8     1
            4   S           7    -7
            5   S           3     7
            6   S           3    -5
            7   GlcA       -3     1
            8   GlcN      -13     1
            9   S         -19     7
            10  S         -19    -5
EDGE        9
            1     2       1:2  
            2     3:a1    1:4  
            3     4       3:2  
            4     5       3:6  
            5     6       3:3  
            6     7:b1    3:4  
            7     8:a1    7:4  
            8     9       8:6  
            9    10       8:2  
///
