ENTRY       G00901                      Glycan
NODE        3
            1   GalNAc      0     0
            2   Neu5Gc    -10     5
            3   GlcNAc    -10    -5
EDGE        2
            1     2:a2    1:6  
            2     3:b1    1:3  
///
