ENTRY       G00941                      Glycan
NODE        3
            1   Glc         0     0
            2   GalNAc    -10     0
            3   Gal       -20     0
EDGE        2
            1     2:a1    1:6  
            2     3:b1    2:3  
///
