ENTRY       G01059                      Glycan
NODE        3
            1   GlcN        0     0
            2   GlcN      -10     0
            3   GlcN      -20     0
EDGE        2
            1     2:b1    1:4  
            2     3:b1    2:4  
///
