ENTRY       G01024                      Glycan
NODE        3
            1   GlcA       10     0
            2   GlcNAc      0     0
            3   GlcA      -10     0
EDGE        2
            1     2:b1    1:4  
            2     3:b1    2:3  
///
