ENTRY       G01143                      Glycan
NODE        11
            1   GlcNAc   24.2   0.5
            2   GlcNAc   15.2   0.5
            3   Man       6.2   0.5
            4   Man      -0.8   4.5
            5   Man      -0.8  -3.5
            6   GlcNAc   -8.8   4.5
            7   GlcNAc   -8.8  -3.5
            8   Gal     -16.8   4.5
            9   Gal     -16.8  -3.5
            10  Neu5Ac  -24.8   4.5
            11  Neu5Ac  -24.8  -3.5
EDGE        10
            1     2:1     1:4  
            2     3:b1    2:4  
            3     4:a1    3:6  
            4     5:a1    3:3  
            5     6:b1    4:2  
            6     7:b1    5:2  
            7     8:b1    6:4  
            8     9:b1    7:4  
            9    10:a2    8:3  
            10   11:a2    9:3  
///
