ENTRY       G01157                      Glycan
NODE        8
            1   GlcNAc     35     0
            2   GlcA       25     0
            3   GlcNAc     15     0
            4   GlcA        5     0
            5   GlcNAc     -5     0
            6   GlcA      -15     0
            7   GlcNAc    -25     0
            8   GlcA      -35     0
EDGE        7
            1     2:b1    1:3  
            2     3:b1    2:4  
            3     4:b1    3:3  
            4     5:b1    4:4  
            5     6:b1    5:3  
            6     7:b1    6:4  
            7     8:b1    7:3  
///
