ENTRY       G01216                      Glycan
NODE        3
            1   Xyl        10     0
            2   Xyl         0     0
            3   GlcA4Me6Me   -10     0
EDGE        2
            1     2:b1    1:4  
            2     3:a1    2:2  
///
