ENTRY       G01319                      Glycan
NODE        6
            1   Glc      17.2   0.5
            2   Glc      10.2   0.5
            3   Glc       3.2   0.5
            4   Glc      -3.8   0.5
            5   Glc     -10.8   0.5
            6   Glc     -17.8   0.5
EDGE        5
            1     2:1     1:4  
            2     3:1     2:4  
            3     4:1     3:4  
            4     5:1     4:4  
            5     6:1     5:4  
///
