ENTRY       G01349                      Glycan
NODE        8
            1   Glc        35     0
            2   Glc        25     0
            3   Glc        15     0
            4   Glc         5     0
            5   Glc        -5     0
            6   Glc       -15     0
            7   Glc       -25     0
            8   Glc       -35     0
EDGE        7
            1     2:a1    1:4  
            2     3:a1    2:4  
            3     4:a1    3:4  
            4     5:a1    4:4  
            5     6:a1    5:4  
            6     7:a1    6:4  
            7     8:a1    7:4  
///
