ENTRY       G01404                      Glycan
NODE        13
            1   Asn      29.2   2.5
            2   GlcNAc   21.2   2.5
            3   LFuc     12.2   7.5
            4   GlcNAc   12.2  -2.5
            5   Man       3.2  -2.5
            6   Man      -3.8   2.5
            7   Man      -3.8  -7.5
            8   GlcNAc  -12.8   2.5
            9   GlcNAc  -12.8  -7.5
            10  Gal     -21.8   2.5
            11  Gal     -21.8  -7.5
            12  Neu5Ac  -29.8   2.5
            13  Neu5Ac  -29.8  -7.5
EDGE        12
            1     2:b1    1    
            2     3:a1    2:6  
            3     4:b1    2:4  
            4     5:b1    4:4  
            5     6:a1    5:6  
            6     7:a1    5:3  
            7     8:b1    6:2  
            8     9:b1    7:2  
            9    10:b1    8:4  
            10   11:b1    9:4  
            11   12:a2   10    
            12   13:a2   11    
///
