ENTRY       G01557                      Glycan
NODE        3
            1   GlcNAc     10     0
            2   Gal         0     0
            3   Neu5Ac    -10     0
EDGE        2
            1     2:b1    1:4  
            2     3:b2    2:6  
///
