ENTRY       G01592                      Glycan
NODE        3
            1   GlcNAc     10     0
            2   GlcNAc      0     0
            3   Kdo       -10     0
EDGE        2
            1     2:b1    1:6  
            2     3:a2    2:6  
///
