ENTRY       G01593                      Glycan
NODE        3
            1   LRha2Me    10     0
            2   LRha        0     0
            3   LFuc2Me3Me4Me   -10     0
EDGE        2
            1     2:a1    1:3  
            2     3:a1    2:3  
///
