ENTRY       G01589                      Glycan
NODE        3
            1   Xyl        10     0
            2   Gal         0     0
            3   LFuc      -10     0
EDGE        2
            1     2:b1    1:2  
            2     3:a1    2:2  
///
