ENTRY       G01673                      Glycan
NODE        14
            1   GlcN       30     0
            2   S          22    -4
            3   LIdoA      20     0
            4   S          12    -4
            5   GlcN       10     0
            6   S           2     4
            7   S           2    -4
            8   LIdoA       0     0
            9   S          -8    -4
            10  GlcN      -10     0
            11  S         -18     4
            12  S         -18    -4
            13  L4-en-thrHexA   -20     0
            14  S         -30    -4
EDGE        13
            1     2       1:2  
            2     3:a1    1:4  
            3     4       3:2  
            4     5:a1    3:4  
            5     6       5:6  
            6     7       5:2  
            7     8:a1    5:4  
            8     9       8:2  
            9    10:a1    8:4  
            10   11      10:6  
            11   12      10:2  
            12   13:a1   10:4  
            13   14      13:2  
///
