ENTRY       G01816                      Glycan
NODE        12
            1   LRha     34.9   5.5
            2   Man      25.9   5.5
            3   Abe      17.9  10.5
            4   Gal      17.9   0.5
            5   LFuc      8.9   0.5
            6   Man      -0.1   0.5
            7   Abe      -8.1   5.5
            8   Gal      -8.1  -4.5
            9   LRha    -17.1  -4.5
            10  Man     -26.1  -4.5
            11  Abe     -34.1   0.5
            12  Gal     -34.1  -9.5
EDGE        11
            1     2:a1    1:4  
            2     3:a1    2:3  
            3     4:a1    2:2  
            4     5:a1    4:3  
            5     6:a1    5:4  
            6     7:a1    6:3  
            7     8:a1    6:2  
            8     9:a1    8:3  
            9    10:a1    9:4  
            10   11:a1   10:3  
            11   12:a1   10:2  
///
