ENTRY       G01931                      Glycan
NODE        7
            1   GlcNAc      0     0
            2   GlcNAc    -10     0
            3   Man       -20     0
            4   Man       -30     5
            5   Man       -30     0
            6   Xyl       -30    -5
            7   GlcNAc    -40     0
EDGE        6
            1     2:b1    1:4  
            2     3:b1    2:4  
            3     4:a1    3:6  
            4     5:a1    3:3  
            5     6:b1    3:2  
            6     7:b1    5:2  
///
