ENTRY       G02159                      Glycan
NODE        3
            1   Glc         9     0
            2   Glc         0     0
            3   Glc6Iodo   -10     0
EDGE        2
            1     2:a1    1:4  
            2     3:a1    2:4  
///
