ENTRY       G02158                      Glycan
NODE        3
            1   LAraf      10     0
            2   LAraf       0     0
            3   LAraf     -10     0
EDGE        2
            1     2:a1    1:5  
            2     3:a1    2:3  
///
