ENTRY       G02414                      Glycan
NODE        4
            1   GalNAc      0     0
            2   GlcNAc    -10     5
            3   Gal       -10    -5
            4   Gal       -20     5
EDGE        3
            1     2:b1    1:6  
            2     3:b1    1:4  
            3     4:b1    2:4  
///
