ENTRY       G02483                      Glycan
NODE        3
            1   GalNAc      0     0
            2   Gal       -10     0
            3   LFuc      -20     0
EDGE        2
            1     2:a1    1:3  
            2     3:a1    2:2  
///
