ENTRY       G02429                      Glycan
NODE        3
            1   The       9.1  -0.1
            2   Glc       0.1  -0.1
            3   Glc      -8.9  -0.1
EDGE        2
            1     2:b1    1:4  
            2     3:b1    2:6  
///
