ENTRY       G02437                      Glycan
NODE        3
            1   Kdo        11     0
            2   Lgro-manHep     1     0
            3   Lgro-manHep   -12     0
EDGE        2
            1     2:a1    1:5  
            2     3:a1    2:3  
///
