ENTRY       G02597                      Glycan
NODE        3
            1   LRha        0     0
            2   LRha      -10     0
            3   LRha      -20     0
EDGE        2
            1     2:b1    1:4  
            2     3:b1    2:4  
///
