ENTRY       G02581                      Glycan
NODE        3
            1   GlcNAc      0     0
            2   GlcNAc    -10     0
            3   GlcNAc    -20     0
EDGE        2
            1     2:a1    1:4  
            2     3:a1    2:4  
///
