ENTRY       G02676                      Glycan
NODE        11
            1   GlcNAc     24     0
            2   GlcNAc     14     0
            3   Man         6     0
            4   Man        -1     5
            5   Man        -1    -5
            6   GlcNAc     -9     5
            7   GlcNAc     -9    -5
            8   Gal       -17     5
            9   Gal       -17    -5
            10  Neu5Ac    -25     5
            11  Neu5Ac    -25    -5
EDGE        10
            1     2:b1    1:4  
            2     3:b1    2:4  
            3     4:a1    3:6  
            4     5:a1    3:3  
            5     6:b1    4:2  
            6     7:b1    5:2  
            7     8:b1    6:4  
            8     9:b1    7:4  
            9    10:a2    8:6  
            10   11:a2    9:3  
///
