ENTRY       G02703                      Glycan
NODE        26
            1   Cer        44     5
            2   Glc        38     5
            3   Gal        32     5
            4   GlcNAc     25     5
            5   Gal        18     5
            6   GlcNAc     11     8
            7   GlcNAc     11     2
            8   Gal         4     8
            9   Gal         4     2
            10  Gal        -2     8
            11  GlcNAc     -3     5
            12  GlcNAc     -3    -1
            13  Gal       -10     5
            14  Gal       -10    -1
            15  Gal       -16     5
            16  GlcNAc    -17     2
            17  GlcNAc    -17    -4
            18  Gal       -24     2
            19  Gal       -24    -4
            20  Gal       -30     2
            21  GlcNAc    -31    -1
            22  GlcNAc    -31    -7
            23  Gal       -38    -1
            24  Gal       -38    -7
            25  Gal       -44    -1
            26  Gal       -44    -7
EDGE        25
            1     2:b1    1:1  
            2     3:b1    2:4  
            3     4:b1    3:3  
            4     5:b1    4:4  
            5     6:b1    5:6  
            6     7:b1    5:3  
            7     8:b1    6:4  
            8     9:b1    7:4  
            9    10:a1    8:3  
            10   11:b1    9:6  
            11   12:b1    9:3  
            12   13:b1   11:4  
            13   14:b1   12:4  
            14   15:a1   13:3  
            15   16:b1   14:6  
            16   17:b1   14:3  
            17   18:b1   16:4  
            18   19:b1   17:4  
            19   20:a1   18:3  
            20   21:b1   19:6  
            21   22:b1   19:3  
            22   23:b1   21:4  
            23   24:b1   22:4  
            24   25:a1   23:3  
            25   26:a1   24:3  
///
