ENTRY       G02770                      Glycan
NODE        9
            1   Glc         0     0
            2   Gal       -10     0
            3   GlcNAc    -20     5
            4   GlcNAc    -20    -5
            5   Gal       -30    10
            6   LFuc      -30     0
            7   Gal       -30    -5
            8   LFuc      -40    10
            9   Neu5Ac    -40    -5
EDGE        8
            1     2:b1    1:4  
            2     3:b1    2:6  
            3     4:b1    2:3  
            4     5:b1    3:4  
            5     6:a1    3:3  
            6     7:b1    4:4  
            7     8:a1    5:2  
            8     9:a2    7:6  
///
