ENTRY       G02971                      Glycan
NODE        7
            1   LRha     19.6  -0.4
            2   Man      11.6  -0.4
            3   Gal       3.6  -0.4
            4   LRha     -4.4  -0.4
            5   Man     -12.4  -0.4
            6   Abe     -20.4   4.6
            7   Gal     -20.4  -5.4
EDGE        6
            1     2:a1    1:4  
            2     3:a1    2:2  
            3     4:a1    3:3  
            4     5:a1    4:4  
            5     6:a1    5:3  
            6     7:a1    5:2  
///
