ENTRY       G02901                      Glycan
NODE        14
            1   2,5-Anhydro-Man    24     0
            2   S          16    -3
            3   LIdoA      11     0
            4   S           7    -3
            5   GlcN        3     0
            6   S          -1     3
            7   S          -1    -3
            8   LIdoA      -5     0
            9   S          -9    -3
            10  GlcN      -13     0
            11  S         -17     3
            12  S         -17    -3
            13  LIdoA     -21     0
            14  S         -25    -3
EDGE        13
            1     2       1:6  
            2     3:a1    1:4  
            3     4       3:2  
            4     5:a1    3:4  
            5     6       5:6  
            6     7       5:2  
            7     8:a1    5:4  
            8     9       8:2  
            9    10:a1    8:4  
            10   11      10:6  
            11   12      10:2  
            12   13:a1   10:4  
            13   14      13:2  
///
