ENTRY       G03001                      Glycan
NODE        6
            1   Gal         0     0
            2   Glc       -10     0
            3   Glc       -20     5
            4   Glc       -20    -5
            5   LRha      -30     5
            6   LRha      -30    -5
EDGE        5
            1     2:b1    1:4  
            2     3:b1    2:3  
            3     4:b1    2:2  
            4     5:a1    3:4  
            5     6:a1    4:4  
///
