ENTRY       G03226                      Glycan
NODE        4
            1   Cer         0     0
            2   GalNAc    -10     0
            3   GlcNAc    -20     0
            4   Gal       -30     0
EDGE        3
            1     2:b1    1:1  
            2     3:b1    2:3  
            3     4:b1    3:4  
///
