ENTRY       G03325                      Glycan
NODE        3
            1   ManA        0     0
            2   ManA      -10     0
            3   ManA      -20     0
EDGE        2
            1     2:b1    1:4  
            2     3:b1    2:4  
///
