ENTRY       G03419                      Glycan
NODE        3
            1   FucNAc     14     0
            2   ManANAc3NAc     0     0
            3   LGulANAc3N   -15     0
EDGE        2
            1     2:b1    1:3  
            2     3:a1    2:4  
///
