ENTRY       G03480                      Glycan
NODE        3
            1   Man         0     0
            2   GalA4Ac   -10     0
            3   Glc       -20     0
EDGE        2
            1     2:a1    1:3  
            2     3:b1    2:3  
///
