ENTRY       G03411                      Glycan
NODE        3
            1   GlcNAc      0     0
            2   LRha      -10     0
            3   ManNAc    -20     0
EDGE        2
            1     2:b1    1:4  
            2     3:a1    2:3  
///
