ENTRY       G03400                      Glycan
NODE        3
            1   Gal         5     0
            2   LFuc       -5     5
            3   LFuc       -5    -5
EDGE        2
            1     2:a1    1:4  
            2     3:b1    1:3  
///
