ENTRY       G03532                      Glycan
NODE        3
            1   Ser         7     0
            2   Glc         0     0
            3   Xyl        -8     0
EDGE        2
            1     2:b1    1    
            2     3:a1    2:3  
///
