ENTRY       G03505                      Glycan
NODE        3
            1   GlcNX       0     0
            2   GlcNX     -10     0
            3   GlcNX     -20     0
EDGE        2
            1     2:b1    1:4  
            2     3:b1    2:4  
///
