ENTRY       G03773                      Glycan
NODE        17
            1   Glc         0     0
            2   Glc       -10     0
            3   Xyl       -20     5
            4   Glc       -20    -5
            5   Gal       -30     5
            6   Xyl       -30     0
            7   Glc       -30   -10
            8   LFuc      -40     5
            9   Xyl       -40    -5
            10  Glc       -40   -15
            11  Glc       -50   -15
            12  Xyl       -60   -10
            13  Glc       -60   -15
            14  Xyl       -60   -20
            15  Xyl       -70   -10
            16  Glc       -70   -20
            17  Xyl       -80   -20
EDGE        16
            1     2:b1    1:4  
            2     3:a1    2:6  
            3     4:b1    2:4  
            4     5:b1    3:2  
            5     6:a1    4:6  
            6     7:b1    4:4  
            7     8:a1    5:2  
            8     9:a1    7:6  
            9    10:b1    7:4  
            10   11:b1   10:4  
            11   12:a1   11:6  
            12   13:b1   11:4  
            13   14:b1   11:2  
            14   15:a1   13:6  
            15   16:b1   13:4  
            16   17:a1   16:6  
///
