ENTRY       G03787                      Glycan
NODE        19
            1   Asn        37     5
            2   GlcNAc   29.2     5
            3   LFuc     19.2    10
            4   GlcNAc   19.2     0
            5   Man      11.2     0
            6   Man       3.2     6
            7   Man       3.2    -6
            8   GlcNAc   -4.8    10
            9   GlcNAc   -4.8     2
            10  GlcNAc   -4.8    -2
            11  GlcNAc   -4.8   -10
            12  Gal     -12.8    10
            13  Gal     -12.8     2
            14  Gal     -12.8    -2
            15  Gal     -12.8   -10
            16  GlcNAc  -20.8    10
            17  Neu5Ac  -20.8     2
            18  Gal     -28.8    10
            19  Neu5Ac  -36.8    10
EDGE        18
            1     2:b1    1    
            2     3:a1    2:6  
            3     4:b1    2:4  
            4     5:b1    4:4  
            5     6:a1    5:6  
            6     7:a1    5:3  
            7     8:b1    6:6  
            8     9:b1    6:2  
            9    10:b1    7:4  
            10   11:b1    7:2  
            11   12:b1    8:4  
            12   13:b1    9:4  
            13   14:b1   10:4  
            14   15:b1   11:4  
            15   16:b1   12:3  
            16   17:a2   13:3  
            17   18:b1   16:4  
            18   19:a2   18:3  
///
