ENTRY       G03823                      Glycan
NODE        15
            1   GlcNAc     30     0
            2   Man        20     0
            3   Man        10     7
            4   Man        10    -7
            5   Man         0    12
            6   Man         0     2
            7   Man         0    -2
            8   Man         0   -12
            9   Man       -10    12
            10  Man       -10     2
            11  Man       -10   -12
            12  Gal       -20    12
            13  Gal       -20     2
            14  Gal       -20   -12
            15  Gal       -30   -12
EDGE        14
            1     2:b1    1:4  
            2     3:a1    2:6  
            3     4:a1    2:3  
            4     5:a1    3:6  
            5     6:a1    3:3  
            6     7:a1    4:6  
            7     8:a1    4:2  
            8     9:a1    5:2  
            9    10:a1    6:2  
            10   11:a1    8:2  
            11   12:a1    9:2  
            12   13:a1   10:2  
            13   14:a1   11:2  
            14   15:a1   14:2  
///
