ENTRY       G03825                      Glycan
NODE        17
            1   GlcNAc   25.2  -2.5
            2   GlcNAc   15.2  -2.5
            3   Man       6.2  -2.5
            4   Man      -1.8   4.5
            5   Man      -1.8  -9.5
            6   GlcNAc   -9.8   9.5
            7   GlcNAc   -9.8  -0.5
            8   GlcNAc   -9.8  -4.5
            9   GlcNAc   -9.8 -14.5
            10  Gal     -17.8  14.5
            11  LFuc    -17.8   4.5
            12  Gal     -17.8  -0.5
            13  Gal     -17.8  -4.5
            14  Gal     -17.8 -14.5
            15  Neu5Ac  -25.8  -0.5
            16  Neu5Ac  -25.8  -4.5
            17  Neu5Ac  -25.8 -14.5
EDGE        16
            1     2:b1    1:4  
            2     3:b1    2:4  
            3     4:a1    3:6  
            4     5:a1    3:3  
            5     6:b1    4:6  
            6     7:b1    4:2  
            7     8:b1    5:4  
            8     9:b1    5:2  
            9    10:b1    6:4  
            10   11:a1    6:3  
            11   12:b1    7:4  
            12   13:b1    8:4  
            13   14:b1    9:4  
            14   15:a2   12    
            15   16:a2   13    
            16   17:a2   14    
///
