ENTRY       G03802                      Glycan
NODE        12
            1   Asn      29.2   0.5
            2   GlcNAc   21.2   0.5
            3   GlcNAc   11.2   0.5
            4   Man       2.2   0.5
            5   Man      -5.8   5.5
            6   Man      -5.8  -4.5
            7   GlcNAc  -13.8   5.5
            8   GlcNAc  -13.8  -4.5
            9   Gal     -21.8   5.5
            10  Gal     -21.8  -4.5
            11  Neu5Ac  -29.8   5.5
            12  Neu5Ac  -29.8  -4.5
EDGE        11
            1     2:b1    1    
            2     3:b1    2:4  
            3     4:b1    3:4  
            4     5:a1    4:6  
            5     6:a1    4:3  
            6     7:b1    5:4  
            7     8:b1    6:4  
            8     9:b1    7:4  
            9    10:b1    8:4  
            10   11:a2    9    
            11   12:a2   10    
///
