ENTRY       G03979                      Glycan
NODE        14
            1   GlcNAc   22.2  -5.5
            2   Man      13.2   1.5
            3   LFuc     13.2 -12.5
            4   Man       3.2   8.5
            5   Man       3.2  -5.5
            6   LFuc      3.2 -12.5
            7   GalNAc   -4.8   8.5
            8   GlcNAc   -5.8  -0.5
            9   GlcNAc   -5.8 -10.5
            10  LFuc    -13.8  13.5
            11  Gal     -13.8   3.5
            12  Gal     -13.8  -0.5
            13  Gal     -13.8 -10.5
            14  Neu5Ac  -22.8   3.5
EDGE        13
            1     2:1     1:4  
            2     3:a1    1:3  
            3     4:1     2:6  
            4     5:a1    2:3  
            5     6:a1    3:3  
            6     7:1     4:2  
            7     8:b1    5:4  
            8     9:b1    5:2  
            9    10:a1    7:6  
            10   11:b1    7:4  
            11   12:b1    8:4  
            12   13:b1    9:4  
            13   14:a2   11:6  
///
