ENTRY       G03999                      Glycan
NODE        15
            1   GlcNAc     25     0
            2   Man        15     0
            3   Man         5     7
            4   Man         5    -7
            5   Man        -5    12
            6   Man        -5     2
            7   Man        -5    -2
            8   Man        -5   -12
            9   P         -15    17
            10  Man       -15     7
            11  Man       -15    -2
            12  P         -15    -7
            13  Man       -15   -17
            14  Man       -25    17
            15  Man       -25    -7
EDGE        14
            1     2:b1    1:4  
            2     3:a1    2:6  
            3     4:a1    2:3  
            4     5:a1    3:6  
            5     6:a1    3:3  
            6     7:a1    4:6  
            7     8:a1    4:2  
            8     9       5:6  
            9    10:a1    5:2  
            10   11:a1    7:2  
            11   12       8:6  
            12   13:a1    8:2  
            13   14:a1    9    
            14   15:a1   12    
///
