ENTRY       G03968                      Glycan
NODE        14
            1   GlcNAc      0     0
            2   Man       -10     0
            3   Man       -20    10
            4   Man       -20   -10
            5   Man       -30    15
            6   Man       -30     5
            7   Man       -30    -5
            8   Man       -30   -15
            9   Man       -40    15
            10  Man       -40     0
            11  Man       -40   -10
            12  Man       -40   -15
            13  Man       -50     0
            14  Man       -60     0
EDGE        13
            1     2:b1    1:4  
            2     3:a1    2:6  
            3     4:a1    2:3  
            4     5:a1    3:6  
            5     6:a1    3:3  
            6     7:a1    4:6  
            7     8:a1    4:2  
            8     9:a1    5:2  
            9    10:a1    7:6  
            10   11:a1    7:2  
            11   12:a1    8:2  
            12   13:a1   10:6  
            13   14:a1   13:6  
///
