ENTRY       G03930                      Glycan
NODE        13
            1   Kdo      24.2  -3.5
            2   Kdo      16.2   1.5
            3   Kdo      16.2  -8.5
            4   P        12.2  -8.5
            5   Lgro-manHep   6.2   1.5
            6   P        -0.8   7.5
            7   P        -3.8   7.5
            8   Lgro-manHep  -6.8   1.5
            9   P       -15.8  -4.5
            10  Glc     -16.8   1.5
            11  Lgro-manHep -19.8   8.5
            12  Gal     -24.8   6.5
            13  Gal     -24.8  -3.5
EDGE        12
            1     2:2     1:7  
            2     3:a2    1:4  
            3     5:a1    2:5  
            4     4       3    
            5     6       5:4  
            6     8:a1    5:3  
            7     7       6    
            8     9       8    
            9    10:a1    8:3  
            10   11:a1    8:7  
            11   12:a1   10:6  
            12   13:a1   10:3  
///
