ENTRY       G04012                      Glycan
NODE        16
            1   Xyl      32.1  -4.1
            2   S        27.1  -0.1
            3   Qui      24.1  -4.1
            4   Glc      16.1   0.9
            5   Xyl      16.1  -9.1
            6   S        11.1   4.9
            7   Glc3Me    7.1   0.9
            8   S         1.1   4.9
            9   Xyl      -1.9   0.9
            10  S        -5.9   4.9
            11  Qui      -9.9   0.9
            12  Glc     -17.9   5.9
            13  Xyl     -17.9  -4.1
            14  S       -21.9   9.9
            15  Glc3Me  -26.9   5.9
            16  S       -31.9   9.9
EDGE        15
            1     2       1:4  
            2     3:b1    1:2  
            3     4:b1    3:4  
            4     5:b1    3:2  
            5     6       4:6  
            6     7:b1    4:3  
            7     8       7:6  
            8     9:b1    7:2  
            9    10       9:4  
            10   11:b1    9:2  
            11   12:b1   11:4  
            12   13:b1   11:2  
            13   14      12:6  
            14   15:b1   12:3  
            15   16      15:6  
///
