ENTRY       G04083                      Glycan
NODE        14
            1   PP-Dol   33.2  -2.5
            2   GlcNAc   24.2  -2.5
            3   GlcNAc   14.2  -2.5
            4   Man       5.2  -2.5
            5   Man      -2.8   2.5
            6   Man      -2.8  -7.5
            7   Man     -10.8   7.5
            8   Man     -10.8  -2.5
            9   Man     -10.8  -7.5
            10  Man     -18.8   7.5
            11  Man     -18.8  -2.5
            12  Man     -18.8  -7.5
            13  Glc     -26.8  -7.5
            14  Gal     -33.8  -7.5
EDGE        13
            1     2:a1    1    
            2     3:b1    2:4  
            3     4:b1    3:4  
            4     5:a1    4:6  
            5     6:a1    4:3  
            6     7:a1    5:6  
            7     8:a1    5:3  
            8     9:a1    6:2  
            9    10:a1    7:2  
            10   11:a1    8:2  
            11   12:a1    9:2  
            12   13:a1   12:3  
            13   14:1    13:3  
///
