ENTRY       G04022                      Glycan
NODE        14
            1   GlcNAc     25    -2
            2   Man        15    -2
            3   Man         5     8
            4   Man         5   -12
            5   Man        -5    13
            6   Man        -5     3
            7   Man        -5    -7
            8   Man        -5   -17
            9   P         -15    18
            10  Man       -15     8
            11  Man       -15     3
            12  Man       -15    -7
            13  Man       -15   -17
            14  Man       -25    18
EDGE        13
            1     2:b1    1:4  
            2     3:a1    2:6  
            3     4:a1    2:3  
            4     5:a1    3:6  
            5     6:a1    3:3  
            6     7:a1    4:6  
            7     8:a1    4:2  
            8     9       5:6  
            9    10:a1    5:2  
            10   11:a1    6:2  
            11   12:a1    7:2  
            12   13:a1    8:2  
            13   14:a1    9    
///
