ENTRY       G04195                      Glycan
NODE        12
            1   GlcNAc      0     0
            2   LFuc      -10     5
            3   GlcNAc    -10    -5
            4   Man       -20    -5
            5   Man       -30     0
            6   Man       -30   -10
            7   Man       -40     0
            8   GlcNAc    -40   -10
            9   Man       -50     0
            10  Gal       -50   -10
            11  GalNAc    -60    -5
            12  LFuc      -60   -15
EDGE        11
            1     2:a1    1:6  
            2     3:b1    1:4  
            3     4:b1    3:4  
            4     5:a1    4:6  
            5     6:a1    4:3  
            6     7:a1    5:3  
            7     8:b1    6:2  
            8     9:a1    7:2  
            9    10:b1    8:4  
            10   11:a1   10:3  
            11   12:a1   10:2  
///
