ENTRY       G04186                      Glycan
NODE        20
            1   GlcNAc      0     0
            2   LFuc      -10     5
            3   GlcNAc    -10    -5
            4   Man       -20    -5
            5   Man       -30     5
            6   Man       -30   -15
            7   GlcNAc    -40    10
            8   GlcNAc    -40     0
            9   GlcNAc    -40   -10
            10  GlcNAc    -40   -20
            11  Gal       -50    10
            12  Gal       -50     0
            13  Gal       -50    -5
            14  LFuc      -50   -15
            15  Gal       -50   -20
            16  GlcNAc    -60    10
            17  GlcNAc    -60    -5
            18  Gal       -70    10
            19  Gal       -70     0
            20  LFuc      -70   -10
EDGE        19
            1     2:a1    1:6  
            2     3:b1    1:4  
            3     4:b1    3:4  
            4     5:a1    4:6  
            5     6:a1    4:3  
            6     7:b1    5:6  
            7     8:b1    5:2  
            8     9:b1    6:4  
            9    10:b1    6:2  
            10   11:b1    7:4  
            11   12:b1    8:4  
            12   13:b1    9:4  
            13   14:a1    9:3  
            14   15:b1   10:4  
            15   16:b1   11:3  
            16   17:b1   13:3  
            17   18:b1   16:4  
            18   19:b1   17:4  
            19   20:a1   17:3  
///
