ENTRY       G04200                      Glycan
NODE        12
            1   GlcNAc      0     0
            2   Man       -10     0
            3   Man       -20    10
            4   Man       -20   -10
            5   GlcNAc    -30    15
            6   GlcNAc    -30     5
            7   GlcNAc    -30    -5
            8   GlcNAc    -30   -15
            9   Gal       -40    15
            10  Gal       -40     5
            11  Gal       -40    -5
            12  Gal       -40   -15
EDGE        11
            1     2:b1    1:4  
            2     3:a1    2:6  
            3     4:a1    2:3  
            4     5:b1    3:6  
            5     6:b1    3:2  
            6     7:b1    4:6  
            7     8:b1    4:2  
            8     9:b1    5:4  
            9    10:b1    6:4  
            10   11:b1    7:4  
            11   12:b1    8:4  
///
