ENTRY       G04278                      Glycan
NODE        15
            1   GlcNAc   28.8   2.6
            2   GlcNAc   18.8   2.6
            3   Man       9.8   2.6
            4   Man      -0.2   9.6
            5   Man      -0.2  -4.4
            6   GlcNAc   -9.2  -9.4
            7   GlcNAc  -10.2   9.6
            8   D/LGlcNAc -10.2   0.6
            9   Gal     -18.2  -9.4
            10  Gal     -19.2   9.6
            11  Gal     -19.2  -4.4
            12  Neu5Ac  -20.2   5.6
            13  Neu5Ac  -27.2  -9.4
            14  Neu5Ac  -28.2   9.6
            15  Neu5Ac  -28.2  -4.4
EDGE        14
            1     2:b1    1:4  
            2     3:b1    2:4  
            3     4:a1    3:6  
            4     5:a1    3:3  
            5     7:b1    4:2  
            6     6:b1    5:2  
            7     8:b1    5:4  
            8     9:b1    6:4  
            9    10:b1    7:4  
            10   11:b1    8:3  
            11   12:a2    8:6  
            12   13:a2    9:6  
            13   14:a2   10:6  
            14   15:a2   11:3  
///
