ENTRY       G04262                      Glycan
NODE        16
            1   GlcNAc      0     0
            2   LFuc      -10     5
            3   GlcNAc    -10    -5
            4   Man       -20    -5
            5   Man       -30     0
            6   GlcNAc    -30    -5
            7   Man       -30   -10
            8   GlcNAc    -40     0
            9   GlcNAc    -40    -5
            10  GlcNAc    -40   -15
            11  Gal       -50     0
            12  Gal       -50    -5
            13  Gal       -50   -15
            14  Neu5Ac    -60     0
            15  Neu5Ac    -60    -5
            16  Neu5Ac    -60   -15
EDGE        15
            1     2:a1    1:6  
            2     3:b1    1:4  
            3     4:b1    3:4  
            4     5:a1    4:6  
            5     6:b1    4:4  
            6     7:a1    4:3  
            7     8:b1    5:2  
            8     9:b1    7:6  
            9    10:b1    7:2  
            10   11:b1    8:4  
            11   12:b1    9:4  
            12   13:b1   10:4  
            13   14:a2   11:3  
            14   15:a2   12:6  
            15   16:a2   13:3  
///
