ENTRY       G04308                      Glycan
NODE        11
            1   Asn      29.2  -2.5
            2   GlcNAc   21.2  -2.5
            3   GlcNAc   11.2  -2.5
            4   Man       2.2  -2.5
            5   Man      -5.8   2.5
            6   Man      -5.8  -7.5
            7   Man     -13.8   7.5
            8   Man     -13.8  -2.5
            9   GlcNAc  -13.8  -7.5
            10  GalNAc  -23.8  -7.5
            11  S       -29.8  -7.5
EDGE        10
            1     2:b1    1    
            2     3:b1    2:4  
            3     4:b1    3:4  
            4     5:a1    4:6  
            5     6:a1    4:3  
            6     7:a1    5:6  
            7     8:a1    5:3  
            8     9:b1    6:2  
            9    10:b1    9:4  
            10   11      10    
///
