ENTRY       G04354                      Glycan
NODE        12
            1   Kdo      20.2  -2.5
            2   Glc      12.2   2.5
            3   Kdo      12.2  -7.5
            4   Glc       4.2   7.5
            5   Glc       4.2   2.5
            6   Glc       4.2  -2.5
            7   Glc      -3.8   7.5
            8   GlcNAc   -4.8   2.5
            9   Gal     -11.8   7.5
            10  Gal     -12.8   2.5
            11  Gal     -18.8   7.5
            12  Gal     -19.8   2.5
EDGE        11
            1     2:a1    1:5  
            2     3:2     1:4  
            3     4:b1    2:6  
            4     5:b1    2:4  
            5     6:b1    2:3  
            6     7:a1    4:2  
            7     8:a1    5:2  
            8     9:b1    7:4  
            9    10:b1    8:4  
            10   11:a1    9:4  
            11   12:a1   10:4  
///
