ENTRY       G04458                      Glycan
NODE        21
            1   Glc         0     0
            2   Glc       -10     0
            3   Xyl       -20     5
            4   Glc       -20    -5
            5   Xyl       -30     0
            6   Glc       -30   -10
            7   Xyl       -40    -5
            8   Glc       -40   -15
            9   Glc       -50   -15
            10  Xyl       -60   -10
            11  Glc       -60   -20
            12  Xyl       -70   -15
            13  Glc       -70   -25
            14  Xyl       -80   -20
            15  Glc       -80   -30
            16  Glc       -90   -30
            17  Xyl      -100   -25
            18  Glc      -100   -35
            19  Xyl      -110   -30
            20  Glc      -110   -40
            21  Xyl      -120   -40
EDGE        20
            1     2:b1    1:4  
            2     3:a1    2:6  
            3     4:b1    2:4  
            4     5:a1    4:6  
            5     6:b1    4:4  
            6     7:a1    6:6  
            7     8:b1    6:4  
            8     9:b1    8:4  
            9    10:a1    9:6  
            10   11:b1    9:4  
            11   12:a1   11:6  
            12   13:b1   11:4  
            13   14:a1   13:6  
            14   15:b1   13:4  
            15   16:b1   15:4  
            16   17:a1   16:6  
            17   18:b1   16:4  
            18   19:a1   18:6  
            19   20:b1   18:4  
            20   21:a1   20:6  
///
