ENTRY       G04424                      Glycan
NODE        12
            1   GlcNAc     20    -4
            2   GlcNAc     11    -4
            3   Man         3    -4
            4   Man        -5     1
            5   Man        -5    -9
            6   Man       -13     6
            7   Man       -13    -4
            8   Man       -13    -9
            9   P         -19    10
            10  P         -19    -5
            11  Man       -21     6
            12  Man       -21    -9
EDGE        11
            1     2:b1    1:4  
            2     3:b1    2:4  
            3     4:a1    3:6  
            4     5:a1    3:3  
            5     6:a1    4:6  
            6     7:a1    4:3  
            7     8:a1    5:2  
            8     9       6:6  
            9    11:a1    6:2  
            10   10       8:6  
            11   12:a1    8:2  
///
