ENTRY       G04449                      Glycan
NODE        12
            1   GlcNAc      0     0
            2   Man       -10     0
            3   Man       -20    10
            4   Man       -20   -10
            5   Man       -30    15
            6   Man       -30     5
            7   Man       -30    -5
            8   Man       -30   -15
            9   Man       -40   -15
            10  Glc       -50   -15
            11  Glc       -60   -15
            12  Glc       -70   -15
EDGE        11
            1     2:b1    1:4  
            2     3:a1    2:6  
            3     4:a1    2:3  
            4     5:a1    3:6  
            5     6:a1    3:3  
            6     7:a1    4:6  
            7     8:a1    4:2  
            8     9:a1    8:2  
            9    10:a1    9:3  
            10   11:a1   10:3  
            11   12:a1   11:2  
///
