ENTRY       G04558                      Glycan
NODE        15
            1   GlcNAc     27   0.5
            2   GlcNAc     17   0.5
            3   Man         8   0.5
            4   Man        -1   7.5
            5   Man        -1  -6.5
            6   GlcNAc    -10   7.5
            7   GlcNAc    -10  -1.5
            8   GlcNAc    -10 -11.5
            9   Gal       -19  12.5
            10  LFuc      -19   2.5
            11  Gal       -19  -1.5
            12  Gal       -19 -11.5
            13  Neu5Ac    -28  12.5
            14  Neu5Ac    -28  -1.5
            15  Neu5Ac    -28 -11.5
EDGE        14
            1     2:b1    1:4  
            2     3:b1    2:4  
            3     4:a1    3:6  
            4     5:a1    3:3  
            5     6:b1    4:2  
            6     7:b1    5:4  
            7     8:b1    5:2  
            8     9:b1    6:4  
            9    10:a1    6:3  
            10   11:b1    7:4  
            11   12:b1    8:4  
            12   13:a2    9:3  
            13   14:a2   11    
            14   15:a2   12    
///
