ENTRY       G04689                      Glycan
NODE        8
            1   GalNAc      0     0
            2   Gal       -10     0
            3   GlcNAc    -20     0
            4   Gal       -30     0
            5   GlcNAc    -40     0
            6   LFuc      -50     5
            7   Gal       -50    -5
            8   Neu5Ac    -60    -5
EDGE        7
            1     2:b1    1:3  
            2     3:b1    2:3  
            3     4:b1    3:4  
            4     5:b1    4:3  
            5     6:a1    5:4  
            6     7:b1    5:3  
            7     8:a2    7:3  
///
