ENTRY       G04629                      Glycan
NODE        9
            1   GlcNAc      0     0
            2   Man       -10     0
            3   Man       -20     5
            4   Man       -20    -5
            5   GlcNAc    -30     5
            6   GlcNAc    -30    -5
            7   Gal       -40     5
            8   Gal       -40    -5
            9   Neu5Ac    -50     5
EDGE        8
            1     2:b1    1:4  
            2     3:a1    2:6  
            3     4:a1    2:3  
            4     5:b1    3:2  
            5     6:b1    4:2  
            6     7:b1    5:4  
            7     8:b1    6:4  
            8     9:a2    7:3  
///
