ENTRY       G04970                      Glycan
NODE        13
            1   GlcN       27     0
            2   S          21     4
            3   S          21    -4
            4   Glc        19     0
            5   GlcN       11     0
            6   S           5     4
            7   S           5    -4
            8   GlcA        2     0
            9   GlcN       -7     0
            10  S         -13     4
            11  S         -13    -4
            12  L4-en-thrHexA   -19     0
            13  S         -27    -4
EDGE        12
            1     2       1:6  
            2     3       1:2  
            3     4:a1    1:4  
            4     5:b1    4:4  
            5     6       5:6  
            6     7       5:2  
            7     8:a1    5:4  
            8     9:b1    8:4  
            9    10       9:6  
            10   11       9:2  
            11   12:a1    9:4  
            12   13      12:2  
///
