ENTRY       G04986                      Glycan
NODE        14
            1   Glc        23     0
            2   S          23    -6
            3   S          18     6
            4   S          18    -6
            5   LIdoA      13     0
            6   S           8    -6
            7   GlcN        3     0
            8   S           3    -6
            9   S          -3     6
            10  S          -3    -6
            11  GlcA       -7     0
            12  GlcN      -17     0
            13  S         -23     6
            14  S         -23    -6
EDGE        13
            1     2       1:2  
            2     3       1:6  
            3     4       1:3  
            4     5:a1    1:4  
            5     6       5:2  
            6     7:a1    5:4  
            7     8       7:2  
            8     9       7:6  
            9    10       7:3  
            10   11:b1    7:4  
            11   12:a1   11:4  
            12   13      12:6  
            13   14      12:2  
///
