ENTRY       G05086                      Glycan
NODE        16
            1   2,5-Anhydro-Man    35     0
            2   S          25    -4
            3   LIdoA      20     0
            4   S          15    -4
            5   GlcN       10     0
            6   S           5     4
            7   S           5    -4
            8   LIdoA       0     0
            9   S          -5    -4
            10  GlcN      -10     0
            11  S         -11     4
            12  S         -11    -4
            13  S         -18    -4
            14  GlcA      -20     0
            15  GlcNAc    -30     0
            16  S         -36    -4
EDGE        15
            1     2       1:1  
            2     3:a1    1:3  
            3     4       3:2  
            4     5:a1    3:4  
            5     6       5:6  
            6     7       5:2  
            7     8:a1    5:4  
            8     9       8:2  
            9    10:a1    8:4  
            10   11      10:6  
            11   12      10:2  
            12   13      10:3  
            13   14:b1   10:4  
            14   15:a1   14:4  
            15   16      15:6  
///
