ENTRY       G05186                      Glycan
NODE        7
            1   GalNAc      0     0
            2   Gal       -10     0
            3   GlcNAc    -20     5
            4   GlcNAc    -20    -5
            5   Gal       -30     5
            6   Gal       -30    -5
            7   Neu5Gc    -40     5
EDGE        6
            1     2:b1    1:3  
            2     3:b1    2:6  
            3     4:b1    2:3  
            4     5:b1    3:4  
            5     6:b1    4:4  
            6     7:a2    5:3  
///
