ENTRY       G05227                      Glycan
NODE        9
            1   GlcNAc      0     0
            2   LFuc      -10     5
            3   GlcNAc    -10    -5
            4   Man       -20    -5
            5   Man       -30     0
            6   GlcNAc    -30    -5
            7   Man       -30   -10
            8   GlcNAc    -40     0
            9   GlcNAc    -40   -10
EDGE        8
            1     2:a1    1:6  
            2     3:b1    1:4  
            3     4:a1    3:4  
            4     5:a1    4:6  
            5     6:b1    4:4  
            6     7:a1    4:3  
            7     8:b1    5:2  
            8     9:b1    7:2  
///
