ENTRY       G05248                      Glycan
NODE        18
            1   S          15    11
            2   Glc        15     7
            3   S          15    -1
            4   Glc        15    -5
            5   S          14   -10
            6   S          10    -1
            7   S          10    -9
            8   S           9    11
            9   S           9     3
            10  S           3    11
            11  Glc         3     7
            12  S          -3    11
            13  S          -3     3
            14  S          -9    11
            15  Glc        -9     7
            16  S         -10     3
            17  S         -15    11
            18  S         -15     3
EDGE        17
            1     2:6     1    
            2     4:a1    2:a1 
            3     8       2:3  
            4     9       2:2  
            5    11:b1    2:4  
            6     4:6     3    
            7     5       4:2  
            8     6       4:4  
            9     7       4:3  
            10   11:6    10    
            11   12      11:3  
            12   13      11:2  
            13   15:a1   11:4  
            14   15:6    14    
            15   16      15:2  
            16   17      15:4  
            17   18      15:3  
///
