ENTRY       G05568                      Glycan
NODE        14
            1   GlcN       27     0
            2   S          26    -4
            3   S          20     4
            4   S          20    -4
            5   LIdoA      16     0
            6   S          11    -4
            7   S           6     4
            8   GlcN        6     0
            9   S           6    -4
            10  S           0    -4
            11  GlcA2Me3Me    -6     0
            12  GlcN3Me4Me   -19     0
            13  S         -27     4
            14  S         -27    -4
EDGE        13
            1     2       1:2  
            2     3       1:6  
            3     4       1:3  
            4     5:a1    1:4  
            5     6       5:2  
            6     8:a1    5:4  
            7     8:6     7    
            8    10       8:3  
            9    11:b1    8:4  
            10    8:2     9    
            11   12:a1   11:4  
            12   13      12:6  
            13   14      12:2  
///
