ENTRY       G05518                      Glycan
NODE        13
            1   GlcN       22     0
            2   S          18     4
            3   S          18    -4
            4   GlcA       12     0
            5   S           8    -4
            6   S           2     4
            7   GlcN        2     0
            8   S           2    -4
            9   S          -3    -4
            10  GlcA       -8     0
            11  GlcN      -18     0
            12  S         -22     4
            13  S         -22    -4
EDGE        12
            1     2       1:6  
            2     3       1:2  
            3     4:b1    1:4  
            4     5       4:2  
            5     7:a1    4:4  
            6     7:6     6    
            7     9       7:3  
            8    10:b1    7:4  
            9     7:2     8    
            10   11:a1   10:4  
            11   12      11:6  
            12   13      11:2  
///
