ENTRY       G05576                      Glycan
NODE        14
            1   Glc        25     0
            2   S          24     4
            3   S          24    -4
            4   S          19    -4
            5   LIdoA3Me    14     0
            6   S           7    -4
            7   S           3     4
            8   Glc         3     0
            9   S           3    -4
            10  S          -4    -4
            11  GlcA2Me3Me    -8     0
            12  Glc3Me4Me   -20     0
            13  S         -26     4
            14  S         -26    -4
EDGE        13
            1     2       1:6  
            2     3       1:2  
            3     4       1:3  
            4     5:a1    1:4  
            5     6       5:2  
            6     8:a1    5:4  
            7     7       8:6  
            8     9       8:2  
            9    10       8:3  
            10   11:b1    8:4  
            11   12:a1   11:4  
            12   13      12:6  
            13   14      12:2  
///
