ENTRY       G05595                      Glycan
NODE        15
            1   GlcN       39     0
            2   S          35    -4
            3   LIdoA      29     0
            4   S          25    -4
            5   GlcN       19     0
            6   S          15     4
            7   S          15    -4
            8   GlcA        9     0
            9   GlcNAc     -1     0
            10  S          -6    -4
            11  LIdoA     -11     0
            12  GlcN      -21     0
            13  S         -26    -4
            14  L4-en-thrHexA   -32     0
            15  S         -40    -4
EDGE        14
            1     2       1:2  
            2     3:a1    1:4  
            3     4       3:2  
            4     5:a1    3:4  
            5     6       5:3  
            6     7       5:2  
            7     8:b1    5:4  
            8     9:a1    8:4  
            9    10       9:6  
            10   11:a1    9:4  
            11   12:a1   11:4  
            12   13      12:2  
            13   14:a1   12:4  
            14   15      14:2  
///
