ENTRY       G05691                      Glycan
NODE        22
            1   GlcNAc     30     3
            2   Man        20     3
            3   Man        10    13
            4   Man        10    -8
            5   GlcNAc      0    13
            6   GlcNAc      0    -1
            7   GlcNAc      0   -13
            8   Gal       -10    13
            9   Gal       -10    -1
            10  Gal       -10   -13
            11  GlcNAc    -20    17
            12  GlcNAc    -20     9
            13  GlcNAc    -20     2
            14  GlcNAc    -20    -4
            15  GlcNAc    -20    -9
            16  GlcNAc    -20   -17
            17  Gal       -30    17
            18  Gal       -30     9
            19  Gal       -30     2
            20  Gal       -30    -4
            21  Gal       -30    -9
            22  Gal       -30   -17
EDGE        21
            1     2:b1    1:4  
            2     3:a1    2:6  
            3     4:a1    2:3  
            4     5:b1    3:2  
            5     6:b1    4:4  
            6     7:b1    4:2  
            7     8:b1    5:4  
            8     9:b1    6:4  
            9    10:b1    7:4  
            10   11:b1    8:6  
            11   12:b1    8:3  
            12   13:b1    9:6  
            13   14:b1    9:3  
            14   15:b1   10:6  
            15   16:b1   10:3  
            16   17:b1   11:4  
            17   18:b1   12:4  
            18   19:b1   13:4  
            19   20:b1   14:4  
            20   21:b1   15:4  
            21   22:b1   16:4  
///
