ENTRY       G05612                      Glycan
NODE        13
            1   GlcN       22     0
            2   S          21    -6
            3   S          17     6
            4   S          17    -6
            5   LIdoA      13     0
            6   GlcN        3     0
            7   S           2    -6
            8   S          -2     6
            9   S          -2    -6
            10  GlcA       -7     0
            11  GlcN      -17     0
            12  S         -22     6
            13  S         -22    -6
EDGE        12
            1     2       1:2  
            2     3       1:6  
            3     4       1:3  
            4     5:a1    1:4  
            5     6:a1    5:4  
            6     7       6:2  
            7     8       6:6  
            8     9       6:3  
            9    10:b1    6:4  
            10   11:a1   10:4  
            11   12      11:6  
            12   13      11:2  
///
