ENTRY       G05614                      Glycan
NODE        8
            1   LRha     18.6   2.6
            2   Man      10.6   2.6
            3   Tyv       3.6   7.6
            4   Gal       3.6  -2.4
            5   LRha     -4.4  -2.4
            6   Man     -12.4  -2.4
            7   Tyv     -19.4   2.6
            8   Gal     -19.4  -7.4
EDGE        7
            1     2:a1    1:4  
            2     3:a1    2:3  
            3     4:a1    2:2  
            4     5:a1    4:2  
            5     6:a1    5:4  
            6     7:a1    6:3  
            7     8:a1    6:2  
///
