ENTRY       G05942                      Glycan
NODE        12
            1   2,5-Anhydro-Man  33.2   2.5
            2   D/LHexA  20.2   2.5
            3   GlcN     10.2   2.5
            4   S         6.2  -1.5
            5   LIdoA     1.2   2.5
            6   S        -2.8  -1.5
            7   GlcN     -6.8   2.5
            8   S       -10.8  -1.5
            9   D/LHexA -15.8   2.5
            10  GlcN    -25.8   2.5
            11  S       -29.8  -1.5
            12  GlcA    -33.8   2.5
EDGE        11
            1     2:1     1:3  
            2     3:a1    2:4  
            3     4       3:2  
            4     5:a1    3:4  
            5     6       5:2  
            6     7:a1    5:4  
            7     8       7:2  
            8     9:1     7:4  
            9    10:a1    9:4  
            10   11      10:2  
            11   12:b1   10:4  
///
