ENTRY       G06145                      Glycan
NODE        11
            1   Glc      31.2   2.6
            2   Glc      31.2  -2.4
            3   Glc      24.2   2.6
            4   Gal      17.2   2.6
            5   LAco     10.2   2.6
            6   LXyl      3.2   2.6
            7   LXyl     -3.8   2.6
            8   LXyl    -10.8   2.6
            9   LXyl    -17.8   2.6
            10  LXyl    -24.8   2.6
            11  LXyl    -31.8   2.6
EDGE        10
            1     2:a1    1:a1 
            2     3:b1    1:4  
            3     4:b1    3:3  
            4     5:a1    4:3  
            5     6:b1    5:4  
            6     7:b1    6:3  
            7     8:b1    7:3  
            8     9:b1    8:3  
            9    10:b1    9:3  
            10   11:b1   10:3  
///
