ENTRY       G06183                      Glycan
NODE        9
            1   Kdo      22.2   0.5
            2   D/LHep   12.2   0.5
            3   Glc       3.2   5.5
            4   D/LHep    2.2  -4.5
            5   P        -3.8  -0.5
            6   Gal      -4.8   5.5
            7   GlcNAc   -7.8  -4.5
            8   GlcNAc  -13.8   5.5
            9   Gal     -22.8   5.5
EDGE        8
            1     2:1     1:5  
            2     3:1     2:4  
            3     4:1     2:3  
            4     6:b1    3:4  
            5     5       4:3  
            6     7:1     4:2  
            7     8:b1    6:3  
            8     9:b1    8:4  
///
