ENTRY       G06323                      Glycan
NODE        6
            1   Glc         0     0
            2   LAra      -10     0
            3   Glc       -20     0
            4   Xyl       -30     5
            5   LRha      -30    -5
            6   LAraf     -40     5
EDGE        5
            1     2:a1    1:6  
            2     3:b1    2:2  
            3     4:b1    3:3  
            4     5:a1    3:2  
            5     6:a1    4:2  
///
