ENTRY       G06453                      Glycan
NODE        13
            1   GlcN       28     0
            2   S          24     4
            3   S          24    -4
            4   GlcA       18     0
            5   GlcNAc      8     0
            6   S           4    -4
            7   LIdoA      -2     0
            8   S          -6    -4
            9   Glc       -12     0
            10  S         -16     4
            11  S         -16    -4
            12  L4-en-thrHexA   -22     0
            13  S         -29    -4
EDGE        12
            1     2       1:6  
            2     3       1:2  
            3     4:b1    1:4  
            4     5:a1    4:4  
            5     6       5:6  
            6     7:a1    5:4  
            7     8       7:2  
            8     9:a1    7:4  
            9    10       9:6  
            10   11       9:2  
            11   12:a1    9:4  
            12   13      12:2  
///
