ENTRY       G06494                      Glycan
NODE        6
            1   Glc         0     0
            2   Glc       -10     0
            3   Glc       -20     0
            4   Glc       -30     0
            5   Glc       -40     0
            6   Glc       -50     0
EDGE        5
            1     2:b1    1:2  
            2     3:b1    2:2  
            3     4:b1    3:2  
            4     5:b1    4:2  
            5     6:b1    5:2  
///
