ENTRY       G06637                      Glycan
NODE        8
            1   GlcN     17.2  -1.5
            2   Man       9.2  -1.5
            3   Man       0.2   3.5
            4   GalNAc   -0.8  -6.5
            5   Man      -8.8   3.5
            6   Gal      -8.8  -6.5
            7   P       -14.8   7.5
            8   Neu5Ac  -16.8  -6.5
EDGE        7
            1     2:a1    1:4  
            2     3:a1    2:6  
            3     4:1     2    
            4     5:a1    3:2  
            5     6:1     4    
            6     7       5:6  
            7     8:2     6    
///
