ENTRY       G06724                      Glycan
NODE        9
            1   2,5-Anhydro-Man  25.2   2.5
            2   D/LHexA  12.2   2.5
            3   GlcN      2.2   2.5
            4   S        -1.8  -1.5
            5   LIdoA    -6.8   2.5
            6   S       -10.8  -1.5
            7   GlcN    -15.8   2.5
            8   S       -19.8  -1.5
            9   GlcA    -24.8   2.5
EDGE        8
            1     2:1     1:3  
            2     3:a1    2:4  
            3     4       3:2  
            4     5:a1    3:4  
            5     6       5:2  
            6     7:a1    5:4  
            7     8       7:2  
            8     9:b1    7:4  
///
