ENTRY       G06812                      Glycan
NODE        5
            1   GlcN        0     0
            2   Gal       -10     0
            3   GlcNAc    -20     0
            4   Gal       -30     0
            5   LFuc      -40     0
EDGE        4
            1     2:b1    1:4  
            2     3:b1    2:3  
            3     4:b1    3:3  
            4     5:a1    4:2  
///
