ENTRY       G06941                      Glycan
NODE        6
            1   Xyl         0     0
            2   Xyl       -10     5
            3   GlcA4Me   -10    -5
            4   Xyl       -20     5
            5   Xyl       -30     5
            6   Xyl       -40     5
EDGE        5
            1     2:b1    1:4  
            2     3:a1    1:2  
            3     4:b1    2:4  
            4     5:b1    4:4  
            5     6:b1    5:4  
///
