ENTRY       G07547                      Glycan
NODE        3
            1   Man         0     0
            2   Galf      -10     5
            3   Galf      -10    -5
EDGE        2
            1     2:b1    1:4  
            2     3:b1    1:2  
///
