ENTRY       G07622                      Glycan
NODE        4
            1   GlcNAc      0     0
            2   Gal       -10     0
            3   GlcNAc    -20     5
            4   Gal       -20    -5
EDGE        3
            1     2:b1    1:4  
            2     3:b1    2:6  
            3     4:b1    2:3  
///
