ENTRY       G08046                      Glycan
NODE        3
            1   Man6Fluoro    11     0
            2   Man        -1     0
            3   Man       -11     0
EDGE        2
            1     2:a1    1:3  
            2     3:a1    2:2  
///
