ENTRY       G08068                      Glycan
NODE        3
            1   Galf        9     0
            2   Galf        0     0
            3   Galf       -9     0
EDGE        2
            1     2:b1    1:6  
            2     3:b1    2:3  
///
