ENTRY       G08110                      Glycan
NODE        5
            1   Fruf     12.2   3.5
            2   Glc      12.2  -3.5
            3   Glc       4.2  -3.5
            4   Glc      -3.8  -3.5
            5   Glc     -11.8  -3.5
EDGE        4
            1     2:a1    1:b2 
            2     3:1     2:4  
            3     4:a1    3:4  
            4     5:a1    4:4  
///
