ENTRY       G08120                      Glycan
NODE        3
            1   LRha       10     0
            2   Gal         0     0
            3   LRha      -10     0
EDGE        2
            1     2:b1    1:4  
            2     3:a1    2:2  
///
