ENTRY       G08285                      Glycan
NODE        4
            1   GlcA2,3Py     0     0
            2   Glc       -10     0
            3   LFuc      -20     0
            4   Gal       -30     0
EDGE        3
            1     2:a1    1:4  
            2     3:a1    2:3  
            3     4:a1    3:3  
///
