ENTRY       G08473                      Glycan
NODE        3
            1   LFucNAc     8     0
            2   Gal        -2     0
            3   S          -8     0
EDGE        2
            1     2:b1    1:3  
            2     3       2:3  
///
