ENTRY       G08488                      Glycan
NODE        3
            1   Xyl        10     0
            2   Xyl         0     0
            3   Xyl       -10     0
EDGE        2
            1     2:b1    1:3  
            2     3:a1    2:4  
///
