ENTRY       G08664                      Glycan
NODE        3
            1   LAra        0     0
            2   Glc       -10     0
            3   LRha2Ac   -20     0
EDGE        2
            1     2:b1    1:3  
            2     3:a1    2:3  
///
