ENTRY       G08665                      Glycan
NODE        3
            1   LAra       10     0
            2   Glc         0     0
            3   LRha      -10     0
EDGE        2
            1     2:b1    1:3  
            2     3:a1    2:3  
///
