ENTRY       G08704                      Glycan
NODE        3
            1   Glc        10     0
            2   Glc         0     0
            3   Glc       -10     0
EDGE        2
            1     2:a1    1:3  
            2     3:b1    2:2  
///
