ENTRY       G08758                      Glycan
NODE        3
            1   LFuc        0     0
            2   GalA2Ac4Formyl   -10     0
            3   Gal       -22     0
EDGE        2
            1     2:a1    1:3  
            2     3:a1    2:3  
///
