ENTRY       G08875                      Glycan
NODE        3
            1   gro-manHep    12     0
            2   Lgro-manHep    -1     0
            3   GlcA      -13     0
EDGE        2
            1     2:a1    1:3  
            2     3:a1    2:2  
///
