ENTRY       G08842                      Glycan
NODE        2
            1   Glc         8     0
            2   ery-LglcNon-2-ulop5NAc-onic    -9     0
EDGE        1
            1     2:b2    1:6  
///
