ENTRY       G08828                      Glycan
NODE        3
            1   Cer        10     0
            2   Gal         0     0
            3   Galf      -10     0
EDGE        2
            1     2:a1    1:1  
            2     3:b1    2:4  
///
