ENTRY       G08839                      Glycan
NODE        3
            1   Cer        10     0
            2   Man         0     0
            3   Man       -10     0
EDGE        2
            1     2:b1    1:1  
            2     3:b1    2:4  
///
