ENTRY       G08838                      Glycan
NODE        3
            1   Man         0     0
            2   Man       -10     0
            3   Man       -20     0
EDGE        2
            1     2:b1    1:3  
            2     3:b1    2:4  
///
