ENTRY       G08806                      Glycan
NODE        3
            1   Fuc         0     0
            2   LRha      -10     0
            3   Man       -20     0
EDGE        2
            1     2:a1    1:3  
            2     3:b1    2:4  
///
