ENTRY       G08831                      Glycan
NODE        3
            1   GlcA        0     0
            2   LRha      -10     0
            3   LAraf     -20     0
EDGE        2
            1     2:a1    1:4  
            2     3:a1    2:2  
///
