ENTRY       G08993                      Glycan
NODE        3
            1   Gal         0     0
            2   Gal       -10     0
            3   Gal       -20     0
EDGE        2
            1     2:a1    1:3  
            2     3:a1    2:3  
///
