ENTRY       G08965                      Glycan
NODE        3
            1   Glcf       10     0
            2   Glc         0     0
            3   Glc       -10     0
EDGE        2
            1     2:a1    1:6  
            2     3:a1    2:6  
///
