ENTRY       G08974                      Glycan
NODE        3
            1   LRha       10     0
            2   LRha        0     0
            3   GlcNAc    -10     0
EDGE        2
            1     2:a1    1:3  
            2     3:a1    2:3  
///
