ENTRY       G09015                      Glycan
NODE        3
            1   Dig       9.4   0.4
            2   Cym       0.4   0.4
            3   The      -8.6   0.4
EDGE        2
            1     2:b1    1:4  
            2     3:b1    2:4  
///
