ENTRY       G09041                      Glycan
NODE        3
            1   Araf        0     0
            2   Araf      -10     0
            3   Araf      -20     0
EDGE        2
            1     2:a1    1:5  
            2     3:b1    2:2  
///
