ENTRY       G09151                      Glycan
NODE        2
            1   LFucNAm  10.8     0
            2   gro-L3,9dgalNon-2-ulop5NAc7NAc-onic -11.2     0
EDGE        1
            1     2:b2    1:3  
///
