ENTRY       G09204                      Glycan
NODE        3
            1   Ribf       10     0
            2   LIdoN6N     0     0
            3   Man       -10     0
EDGE        2
            1     2:b1    1:3  
            2     3:a1    2:4  
///
