ENTRY       G09237                      Glycan
NODE        3
            1   GlcNAc      0     0
            2   Man       -10     0
            3   Man       -20     0
EDGE        2
            1     2:a1    1:3  
            2     3:a1    2:2  
///
