ENTRY       G09396                      Glycan
NODE        3
            1   Dig       8.5     0
            2   Cym      -0.5     0
            3   Dig      -9.5     0
EDGE        2
            1     2:b1    1:4  
            2     3:b1    2:4  
///
