ENTRY       G09508                      Glycan
NODE        3
            1   Glc         0     0
            2   Glc       -10     0
            3   Glc       -20     0
EDGE        2
            1     2:b1    1:6  
            2     3:a1    2:3  
///
