ENTRY       G09554                      Glycan
NODE        3
            1   Gal         0     0
            2   Glc       -10     0
            3   Glc       -20     0
EDGE        2
            1     2:a1    1:4  
            2     3:b1    2:4  
///
