ENTRY       G09536                      Glycan
NODE        3
            1   gro-3dgalOct-onic  16.4     0
            2   Lgro-LmanHep   0.4     0
            3   Lgro-LmanHep -15.6     0
EDGE        2
            1     2:b1    1:5  
            2     3:b1    2:3  
///
