ENTRY       G09583                      Glycan
NODE        3
            1   LMan        0     0
            2   LRha      -10     0
            3   Glc       -20     0
EDGE        2
            1     2:a1    1:2  
            2     3:b1    2:4  
///
