ENTRY       G09511                      Glycan
NODE        3
            1   Ara-onic     0     0
            2   Glc       -10     0
            3   Glc       -20     0
EDGE        2
            1     2:b1    1:5  
            2     3:a1    2:6  
///
