ENTRY       G09643                      Glycan
NODE        3
            1   LAra        0     0
            2   LAraf     -10     0
            3   Xyl       -20     0
EDGE        2
            1     2:a1    1:5  
            2     3:b1    2:5  
///
