ENTRY       G09632                      Glycan
NODE        2
            1   Fruf1Chloro4Bromo6Chloro     0     4
            2   Gal4Chloro     0    -4
EDGE        1
            1     2:a1    1:b2 
///
