ENTRY       G09630                      Glycan
NODE        2
            1   Fruf1Chloro4Chloro6Chloro     0     5
            2   Gal4Chloro     0    -4
EDGE        1
            1     2:a1    1:b2 
///
