ENTRY       G09773                      Glycan
NODE        3
            1   GlcN        0     0
            2   LIdoA     -10     0
            3   GlcN      -20     0
EDGE        2
            1     2:a1    1:4  
            2     3:a1    2:4  
///
