ENTRY       G09751                      Glycan
NODE        3
            1   GlcN      7.2   0.5
            2   Man      -0.8   0.5
            3   P        -6.8   0.5
EDGE        2
            1     2:1     1    
            2     3       2:6  
///
