ENTRY       G09757                      Glycan
NODE        3
            1   Gal         0     0
            2   LRha      -10     0
            3   LRha      -20     0
EDGE        2
            1     2:a1    1:2  
            2     3:a1    2:3  
///
