ENTRY       G09978                      Glycan
NODE        3
            1   Ribf        9     0
            2   Ribf        0     0
            3   RibfA      -9     0
EDGE        2
            1     2:a1    1:5  
            2     3:a1    2:5  
///
