ENTRY       G09935                      Glycan
NODE        3
            1   Glc      10.4     0
            2   Glc       1.4     0
            3   3dribHex  -9.6     0
EDGE        2
            1     2:a1    1:4  
            2     3:a1    2:3  
///
