ENTRY       G09992                      Glycan
NODE        3
            1   Kdo         5     2
            2   P           0    -2
            3   GlcA       -5     2
EDGE        2
            1     2       1:8  
            2     3:a1    1:4  
///
