ENTRY       G10300                      Glycan
NODE        3
            1   GlcA        0     0
            2   Glc       -10     0
            3   LRha      -20     0
EDGE        2
            1     2:b1    1:2  
            2     3:b1    2:2  
///
