ENTRY       G10508                      Glycan
NODE        3
            1   Fruf        3     1
            2   Glc         3    -4
            3   P          -3     5
EDGE        2
            1     2:a1    1:b2 
            2     3       1:6  
///
