ENTRY       G10552                      Glycan
NODE        3
            1   PP-Und     14     0
            2   MurNAc      4     0
            3   D-Ala-D-Ala-Lys-gamma-D-Glu-Ala   -14     0
EDGE        2
            1     2:a1    1    
            2     3       2:3  
///
