ENTRY       G10645                      Glycan
NODE        3
            1   Ser/Thr    10     0
            2   Gal         0     0
            3   Gal       -10     0
EDGE        2
            1     2:b1    1    
            2     3:a1    2:4  
///
