ENTRY       G10745                      Glycan
NODE        13
            1   Asn        29     2
            2   GlcNAc     21     2
            3   GlcNAc     11     2
            4   Man         2     2
            5   Man        -6     6
            6   Man        -6    -2
            7   GlcNAc    -14     6
            8   GlcNAc    -14     2
            9   GlcNAc    -14    -6
            10  Gal       -22     6
            11  Gal       -22     2
            12  Gal       -22    -6
            13  Neu5Ac    -30    -6
EDGE        12
            1     2:b1    1    
            2     3:b1    2:4  
            3     4:b1    3:4  
            4     5:a1    4:6  
            5     6:a1    4:3  
            6     7:b1    5:2  
            7     8:b1    6:4  
            8     9:b1    6:2  
            9    10:b1    7:4  
            10   11:b1    8:4  
            11   12:b1    9:4  
            12   13:a2   12:6  
///
