ENTRY       G10737                      Glycan
NODE        3
            1   Ser/Thr    10     0
            2   Man         0     0
            3   Man       -10     0
EDGE        2
            1     2:a1    1    
            2     3:a1    2:2  
///
