ENTRY       G11158                      Glycan
NODE        13
            1   Ser/Thr    25     0
            2   GalNAc     15     0
            3   Gal         5    -8
            4   GlcNAc      3     9
            5   GlcNAc     -5    -8
            6   S          -7    14
            7   Gal        -7     9
            8   LFuc       -7     4
            9   S         -15    -3
            10  Gal       -15    -8
            11  LFuc      -15   -13
            12  Neu5Ac    -17     9
            13  Neu5Ac    -25    -8
EDGE        12
            1     2:a1    1    
            2     3:b1    2:3  
            3     4:b1    2:6  
            4     5:b1    3:3  
            5     6       4:6  
            6     7:b1    4:4  
            7     8:a1    4:3  
            8     9       5:6  
            9    10:b1    5:4  
            10   11:a1    5:3  
            11   12:a2    7:3  
            12   13:a2   10:3  
BRACKET     1 -11.0  15.0 -11.0   3.0
            1   7.0   3.0   7.0  15.0
            1 n
            2 -19.0  -2.0 -19.0 -14.0
            2   0.0 -14.0   0.0  -2.0
            2 n
///
