ENTRY       G11239                      Glycan
NODE        7
            1   *        21.9  -2.6
            2   GalNAc   12.9  -2.6
            3   Gal       3.9   2.4
            4   QuiN4NAc   0.9  -2.6
            5   GlcNAc  -10.1  -2.6
            6   Gal     -18.1   2.4
            7   *       -21.1  -2.6
EDGE        6
            1     2:b1    1    
            2     3:b1    2:6  
            3     4:b1    2:3  
            4     5:a1    4:3  
            5     6:b1    5:6  
            6     7       5:3  
BRACKET     1 -16.9  -1.1 -16.9  -4.7
            1  18.8  -4.5  18.8  -0.9
            1 n
///
