ENTRY       G11251                      Glycan
NODE        7
            1   *        24.4  -0.1
            2   GlcNAc   14.4  -0.1
            3   GlcNAc    4.4  -0.1
            4   GalNAc   -5.6  -0.1
            5   GlcA    -15.6  -0.1
            6   *       -23.1  -5.2
            7   2S,8R-AlaLys -24.9   4.4
EDGE        6
            1     2:b1    1    
            2     3:b1    2:3  
            3     4:a1    3:6  
            4     5:b1    4:6  
            5     6       5:4  
            6     7       5    
BRACKET     1 -20.0   0.1 -20.0  -6.1
            1  20.5  -3.4  20.5   2.8
            1 n
///
