ENTRY       G11314                      Glycan
NODE        18
            1   Kdo      50.4    -4
            2   Man      43.4    -4
            3   Man      36.4    -4
            4   Man      29.4     0
            5   Gal      29.4    -8
            6   Glc      22.4     0
            7   Glc      22.4    -8
            8   Glc      15.4    -8
            9   GalNAc   13.4     0
            10  Gal       4.4     0
            11  ManNAc   -4.6     0
            12  GalNAc  -14.6     0
            13  LFuc    -23.6     0
            14  GlcA    -31.6     4
            15  6dTal3Me -33.6    -4
            16  LFuc    -40.6     4
            17  GlcNAc  -49.6     8
            18  GlcNAc  -49.6     0
EDGE        17
            1     2:a1    1:5  
            2     3:a1    2:4  
            3     4:a1    3:6  
            4     5:a1    3:2  
            5     6:a1    4:3  
            6     7:a1    5:3  
            7     9:b1    6:3  
            8     8:a1    7:2  
            9    10:a1    9:3  
            10   11:b1   10:4  
            11   12:a1   11:4  
            12   13:a1   12:3  
            13   14:b1   13:4  
            14   15:a1   13:3  
            15   16:a1   14:2  
            16   17:b1   16:4  
            17   18:a1   16:3  
///
