ENTRY       G11387                      Glycan
NODE        9
            1   *          21     3
            2   Glc        14     3
            3   Man         6     3
            4   Gal        -1     8
            5   GlcA       -1    -2
            6   Rha        -8     3
            7   Gal        -8    -7
            8   Gal       -15     3
            9   *         -21    -2
EDGE        8
            1     2:b1    1    
            2     3:a1    2:3  
            3     4:b1    3:6  
            4     5:a1    3:3  
            5     6:a1    5:4  
            6     7:a1    5:2  
            7     9       5:3  
            8     8:b1    6:2  
BRACKET     1 -18.0  10.0 -18.0  -9.0
            1  18.0  -9.0  18.0  10.0
            1 n
///
