ENTRY       G11301                      Glycan
NODE        3
            1   Ino-P      10     0
            2   Man         0     0
            3   Man       -10     0
EDGE        2
            1     2:a1    1:4  
            2     3:a1    2:6  
///
