ENTRY       G11469                      Glycan
NODE        8
            1   *          22     0
            2   Man        15     0
            3   Man         7     0
            4   Man        -1     0
            5   Glc        -8     5
            6   Man        -8    -5
            7   Man       -16    -5
            8   *         -22    -5
EDGE        7
            1     2:a1    1    
            2     3:a1    2:2  
            3     4:a1    3:2  
            4     5:a1    4:3  
            5     6:a1    4:2  
            6     7:a1    6:3  
            7     8       7:3  
BRACKET     1 -19.0   7.0 -19.0  -7.0
            1  19.0  -7.0  19.0   7.0
            1 n
///
