ENTRY       G11699                      Glycan
NODE        5
            1   *        17.4  -0.1
            2   Man       9.4  -0.1
            3   Rha       0.4  -0.1
            4   Rha      -8.6  -0.1
            5   *       -16.6  -0.1
EDGE        4
            1     2:b1    1    
            2     3:a1    2:3  
            3     4:a1    3:3  
            4     5       4:2  
BRACKET     1 -13.2   1.8 -13.2  -2.6
            1  14.2  -2.6  14.2   1.8
            1 n
///
