ENTRY       G11606                      Glycan
NODE        7
            1   *          17     0
            2   Rha        11     0
            3   Rha         3     0
            4   Rha        -5     0
            5   Fuc       -12     5
            6   Rha       -12    -5
            7   *         -18    -5
EDGE        6
            1     2:a1    1    
            2     3:a1    2:2  
            3     4:a1    3:2  
            4     5:a1    4:4  
            5     6:a1    4:3  
            6     7       6:3  
BRACKET     1 -15.0   7.0 -15.0  -7.0
            1  14.0  -7.0  14.0   7.0
            1 n
///
