ENTRY       G11734                      Glycan
NODE        8
            1   *          27     0
            2   LRha       17     0
            3   LRha        8     0
            4   GlcA       -1     0
            5   Gal        -9    -4
            6   LRha      -10     4
            7   Glc       -17    -4
            8   *         -27    -4
EDGE        7
            1     2:a1    1    
            2     3:a1    2:2  
            3     4:a1    3:2  
            4     5:b1    4:3  
            5     6:a1    4:4  
            6     7:a1    5:3  
            7     8       7:2  
BRACKET     1 -23.0   8.0 -23.0 -10.0
            1  23.0 -10.0  23.0   8.0
            1 n
///
