ENTRY       G11777                      Glycan
NODE        12
            1   *          22     6
            2   Man        16     6
            3   Man         9    -5
            4   Man         6     6
            5   LRha        2    -5
            6   Man         0    -2
            7   Man        -4     6
            8   Man        -7    -2
            9   Man        -9     1
            10  Man       -14    -2
            11  Man       -16     1
            12  *         -22     6
EDGE        11
            1     2:a1    1    
            2     3:a1    2:3  
            3     4:b1    2:4  
            4     5:a1    3:2  
            5     6:a1    4:3  
            6     7:a1    4:6  
            7     8:a1    6:2  
            8     9:a1    7:2  
            9    12       7:6  
            10   10:a1    8:2  
            11   11:a1    9:2  
BRACKET     1 -18.0   9.0 -18.0  -7.0
            1  18.0  -7.0  18.0   9.0
            1 n
///
