ENTRY       G11779                      Glycan
NODE        3
            1   LAra       10     0
            2   LAraf       0     0
            3   LAraf     -10     0
EDGE        2
            1     2:a1    1:4  
            2     3:a1    2:2  
///
