ENTRY       G11724                      Glycan
NODE        3
            1   GalA       10     0
            2   GalA        0     0
            3   Xyl       -10     0
EDGE        2
            1     2:a1    1:4  
            2     3:b1    2:3  
///
