ENTRY       G11855                      Glycan
NODE        19
            1   Asn      45.2   2.5
            2   GlcNAc   36.2   2.5
            3   LFuc     27.2   6.5
            4   GlcNAc   26.2  -1.5
            5   Man      17.2  -1.5
            6   Man       9.2   3.5
            7   Man       9.2  -5.5
            8   GlcNAc    0.2   3.5
            9   GlcNAc    0.2  -5.5
            10  Gal      -8.8   3.5
            11  Gal      -8.8  -5.5
            12  Neu5Ac  -17.8   3.5
            13  Neu5Ac  -17.8  -5.5
            14  GlcNAc  -26.8   3.5
            15  GlcNAc  -26.8  -5.5
            16  Gal     -35.8   3.5
            17  Gal     -35.8  -5.5
            18  Neu5Ac  -44.8   3.5
            19  Neu5Ac  -44.8  -5.5
EDGE        18
            1     2:b1    1:4  
            2     3:a1    2:6  
            3     4:b1    2:4  
            4     5:b1    4:4  
            5     6:a1    5:6  
            6     7:a1    5:3  
            7     8:b1    6:2  
            8     9:b1    7:2  
            9    10:b1    8:4  
            10   11:b1    9:4  
            11   12:a2   10:6  
            12   13:a2   11:6  
            13   14:b1   12    
            14   15:b1   13    
            15   16:b1   14:4  
            16   17:b1   15:4  
            17   18:a2   16:6  
            18   19:a2   17:6  
///
