ENTRY       G11889                      Glycan
NODE        15
            1   GlcNAc   24.2   4.5
            2   LFuc     15.2   8.5
            3   GlcNAc   15.2   0.5
            4   Man       6.2   0.5
            5   Man      -0.8   4.5
            6   Man      -0.8  -3.5
            7   GlcNAc   -8.8   4.5
            8   GlcNAc   -8.8   0.5
            9   GlcNAc   -8.8  -7.5
            10  Gal     -16.8   4.5
            11  Gal     -16.8   0.5
            12  Gal     -16.8  -7.5
            13  Neu5Ac  -23.8   4.5
            14  Neu5Ac  -23.8   0.5
            15  Neu5Ac  -23.8  -7.5
EDGE        14
            1     2:a1    1:6  
            2     3:b1    1:4  
            3     4:b1    3:4  
            4     5:a1    4:6  
            5     6:a1    4:3  
            6     7:b1    5:2  
            7     8:b1    6:4  
            8     9:b1    6:2  
            9    10:b1    7:4  
            10   11:b1    8:4  
            11   12:b1    9:4  
            12   13:a2   10    
            13   14:a2   11    
            14   15:a2   12    
///
