ENTRY       G11849                      Glycan
NODE        23
            1   Asn      33.3   4.6
            2   GlcNAc   24.3   4.6
            3   LFuc     14.3   7.6
            4   GlcNAc   14.3   0.6
            5   Man       5.3   0.6
            6   Man      -5.7   9.6
            7   Man      -5.7  -8.4
            8   GlcNAc  -14.7  13.6
            9   GlcNAc  -14.7   4.6
            10  GlcNAc  -14.7  -4.4
            11  GlcNAc  -14.7 -13.4
            12  LFuc    -23.7  10.6
            13  LFuc    -23.7   1.6
            14  LFuc    -23.7  -7.4
            15  LFuc    -23.7 -16.4
            16  GalNAc  -24.7  16.6
            17  GalNAc  -24.7   7.6
            18  GalNAc  -24.7  -1.4
            19  GalNAc  -24.7 -10.4
            20  Tyv     -33.7  16.6
            21  Tyv     -33.7   7.6
            22  Tyv     -33.7  -1.4
            23  Tyv     -33.7 -10.4
EDGE        22
            1     2:b1    1:4  
            2     3:a1    2:6  
            3     4:b1    2:4  
            4     5:b1    4:4  
            5     6:a1    5:6  
            6     7:a1    5:3  
            7     8:b1    6:6  
            8     9:b1    6:2  
            9    10:b1    7:4  
            10   11:b1    7:2  
            11   12:a1    8:3  
            12   16:b1    8:4  
            13   13:a1    9:3  
            14   17:b1    9:4  
            15   14:a1   10:3  
            16   18:b1   10:4  
            17   15:a1   11:3  
            18   19:b1   11:4  
            19   20:b1   16:3  
            20   21:b1   17:3  
            21   22:b1   18:3  
            22   23:b1   19:3  
///
