ENTRY       G11851                      Glycan
NODE        20
            1   Asn        32     0
            2   GlcNAc     22     0
            3   GlcNAc     11     0
            4   Man         1     0
            5   Man        -8     5
            6   Man        -8    -4
            7   Man       -16     9
            8   Man       -16     2
            9   Man       -16    -1
            10  Man       -16    -8
            11  P         -23    12
            12  P         -23    -5
            13  Man       -24     6
            14  Man       -24    -1
            15  Man       -24   -11
            16  Man       -33    12
            17  Man       -33     6
            18  Man       -33    -1
            19  Man       -33    -5
            20  Man       -33   -11
EDGE        19
            1     2:b1    1:4  
            2     3:b1    2:4  
            3     4:b1    3:4  
            4     5:a1    4:6  
            5     6:a1    4:3  
            6     7:a1    5:6  
            7     8:a1    5:3  
            8     9:a1    6:6  
            9    10:a1    6:2  
            10   11       7:6  
            11   13:a1    7:2  
            12   14:a1    9:2  
            13   12      10:6  
            14   15:a1   10:2  
            15   16:a1   11    
            16   19:a1   12    
            17   17:a1   13:3  
            18   18:a1   14:3  
            19   20:a1   15:3  
///
