ENTRY       G11807                      Glycan
NODE        6
            1   *          17     3
            2   Man        10     3
            3   Man         0     3
            4   Man        -7    -2
            5   *          -9     3
            6   Gal       -17    -2
EDGE        5
            1     2:a1    1    
            2     3:a1    2:6  
            3     4:a1    3:2  
            4     5       3:6  
            5     6:a1    4:2  
BRACKET     1  -3.0   4.0  -3.0   2.0
            1   3.0   2.0   3.0   4.0
            1 10
            2  -7.0   6.0  -7.0   1.0
            2  13.0   1.0  13.0   6.0
            2 n
///
