ENTRY       G11819                      Glycan
NODE        8
            1   *        17.2   0.5
            2   Glc      11.2   0.5
            3   Gal       3.2   0.5
            4   Gal      -5.8   0.5
            5   Glc      -5.8  -4.5
            6   Glc      -5.9   5.5
            7   *       -12.8   0.5
            8   Gal4,6Pyr -16.8  -4.5
EDGE        7
            1     2:b1    1    
            2     3:a1    2:6  
            3     4:b1    3:3  
            4     5:b1    3:4  
            5     6:b1    3:6  
            6     7       4:3  
            7     8:a1    5:4  
BRACKET     1  -9.8   2.5  -9.8  -1.5
            1  14.2  -1.5  14.2   2.5
            1 n
///
