ENTRY       G11835                      Glycan
NODE        8
            1   *          25     0
            2   Gal        16     0
            3   Glc         8     0
            4   Gal         0     0
            5   Man        -8     0
            6   Gal       -16     4
            7   GlcA      -16    -4
            8   *         -26    -4
EDGE        7
            1     2:a1    1    
            2     3:a1    2:2  
            3     4:b1    3:6  
            4     5:a1    4:3  
            5     6:a1    5:3  
            6     7:b1    5:2  
            7     8       7:4  
BRACKET     1 -21.0   8.0 -21.0  -8.0
            1  21.0  -8.0  21.0   8.0
            1 n
///
