ENTRY       G11852                      Glycan
NODE        20
            1   Asn        33     3
            2   GlcNAc     23     3
            3   LFuc     13.2     6
            4   GlcNAc   13.2     0
            5   Man         4     0
            6   Man        -5     5
            7   Man        -5    -5
            8   GlcNAc     -6     0
            9   GlcNAc  -13.8     8
            10  GlcNAc  -13.8     2
            11  GlcNAc  -13.8    -2
            12  GlcNAc  -13.8    -8
            13  Gal     -22.8     8
            14  Gal     -22.8     2
            15  Gal     -22.8    -2
            16  Gal     -22.8    -8
            17  Neu5Ac  -32.8     8
            18  Neu5Ac  -32.8     2
            19  Neu5Ac  -32.8    -2
            20  Neu5Ac  -32.8    -8
EDGE        19
            1     2:b1    1:4  
            2     3:a1    2:6  
            3     4:b1    2:4  
            4     5:b1    4:4  
            5     6:a1    5:6  
            6     7:a1    5:3  
            7     8:b1    5:4  
            8     9:b1    6:6  
            9    10:b1    6:2  
            10   11:b1    7:4  
            11   12:b1    7:2  
            12   13:b1    9:4  
            13   14:b1   10:4  
            14   15:b1   11:4  
            15   16:b1   12:4  
            16   17:a2   13:3  
            17   18:a2   14:3  
            18   19:a2   15:3  
            19   20:a2   16:3  
///
