ENTRY       G11895                      Glycan
NODE        15
            1   Asn      29.2  -1.5
            2   GlcNAc   20.2  -1.5
            3   GlcNAc   10.2  -1.5
            4   Man       1.2  -1.5
            5   Man      -5.8   2.5
            6   Man      -5.8  -5.5
            7   GlcNAc  -13.8   6.5
            8   GlcNAc  -13.8  -1.5
            9   GlcNAc  -13.8  -5.5
            10  Gal     -21.8   6.5
            11  Gal     -21.8  -1.5
            12  Gal     -21.8  -5.5
            13  Neu5Ac  -29.8   6.5
            14  Neu5Ac  -29.8  -1.5
            15  Neu5Ac  -29.8  -5.5
EDGE        14
            1     2:b1    1:4  
            2     3:b1    2:4  
            3     4:b1    3:4  
            4     5:a1    4:6  
            5     6:a1    4:3  
            6     7:b1    5:6  
            7     8:b1    5:2  
            8     9:b1    6:2  
            9    10:b1    7:4  
            10   11:b1    8:4  
            11   12:b1    9:4  
            12   13:a2   10    
            13   14:a2   11    
            14   15:a2   12    
///
