ENTRY       G11945                      Glycan
NODE        12
            1   P        25.2  -1.5
            2   GlcN     19.2  -1.5
            3   GlcN     11.2  -1.5
            4   P         6.2  -4.5
            5   Kdo       3.2  -1.5
            6   Kdo      -4.8  -5.5
            7   D/LHep   -5.8   2.5
            8   P       -10.8   5.5
            9   Kdo     -12.8  -5.5
            10  P       -14.8   5.5
            11  D/LHep  -15.8   2.5
            12  Glc     -24.8   2.5
EDGE        11
            1     2:a1    1    
            2     3:b1    2:6  
            3     4       3:4  
            4     5:a2    3:6  
            5     6:a2    5:4  
            6     7:b1    5:5  
            7     9:a2    6:4  
            8     8       7:4  
            9    11:b1    7:3  
            10   10       8    
            11   12:a1   11:3  
///
