ENTRY       G11921                      Glycan
NODE        13
            1   GlcN       29  -0.1
            2   S          24   1.9
            3   S          24  -2.1
            4   GlcA       20  -0.1
            5   GlcNAc     11  -0.1
            6   S           5   1.9
            7   LIdoA       1  -0.1
            8   S          -4  -2.1
            9   GlcN       -8  -0.1
            10  S         -13   1.9
            11  S         -13  -2.1
            12  L4-en-thrHexA   -20  -0.1
            13  S         -29  -0.1
EDGE        12
            1     2       1:6  
            2     3       1:2  
            3     4:b1    1:4  
            4     5:a1    4:4  
            5     6       5:6  
            6     7:a1    5:4  
            7     8       7:2  
            8     9:a1    7:4  
            9    10       9:6  
            10   11       9:2  
            11   12:a1    9:4  
            12   13      12:2  
///
