ENTRY       G11908                      Glycan
NODE        14
            1   P        26.8  -1.6
            2   GlcN     20.8  -1.6
            3   GlcN     11.8  -1.6
            4   P         6.8  -4.6
            5   Kdo       3.8  -1.6
            6   Kdo      -4.2  -5.6
            7   D/LHep   -5.2   2.4
            8   P       -10.2   5.4
            9   Kdo     -12.2  -5.6
            10  P       -14.2   5.4
            11  D/LHep  -16.2   2.4
            12  P       -16.3  -1.8
            13  Glc     -25.2  -1.6
            14  D/LHep  -26.2   6.4
EDGE        13
            1     2:a1    1    
            2     3:b1    2:6  
            3     4       3:4  
            4     5:a2    3:6  
            5     6:a2    5:4  
            6     7:b1    5:5  
            7     9:a2    6:4  
            8     8       7:4  
            9    11:b1    7:3  
            10   10       8    
            11   12      11    
            12   13:a1   11:3  
            13   14:1    11:7  
///
