ENTRY       G11926                      Glycan
NODE        13
            1   D/LHep   21.2   4.5
            2   P        14.2   4.5
            3   D/LHep   11.2   8.5
            4   D/LHep   11.2   0.5
            5   P        10.2   4.5
            6   P         3.2   0.5
            7   Glc       2.2  -3.5
            8   D/LHep    0.2   4.5
            9   P        -0.8   0.5
            10  Glc      -4.8  -3.5
            11  Gal     -12.8   0.5
            12  Gal     -12.8  -7.5
            13  Gal     -20.8  -7.5
EDGE        12
            1     2       1:4  
            2     3:a1    1:7  
            3     4:a1    1:3  
            4     5       2    
            5     6       4:4  
            6     7:a1    4:3  
            7     8:a1    4:7  
            8     9       6    
            9    10:a1    7:3  
            10   11:b1   10:4  
            11   12:a1   10:2  
            12   13:a1   12:2  
///
