ENTRY       G11948                      Glycan
NODE        12
            1   Asn      30.2  -1.5
            2   GlcNAc   21.2  -1.5
            3   GlcNAc   11.2  -1.5
            4   Man       2.2  -1.5
            5   Man      -5.8   2.5
            6   Man      -5.8  -5.5
            7   GlcNAc  -14.8   6.5
            8   GlcNAc  -14.8  -1.5
            9   GlcNAc  -14.8  -5.5
            10  Gal     -22.8   6.5
            11  Gal     -22.8  -1.5
            12  Neu5Ac  -30.8   6.5
EDGE        11
            1     2:b1    1:4  
            2     3:b1    2:4  
            3     4:b1    3:4  
            4     5:a1    4:6  
            5     6:a1    4:3  
            6     7:b1    5:6  
            7     8:b1    5:2  
            8     9:b1    6:2  
            9    10:b1    7:4  
            10   11:b1    8:4  
            11   12:a2   10    
///
