ENTRY       G11967                      Glycan
NODE        12
            1   Asn      30.2   2.5
            2   GlcNAc   21.2   2.5
            3   LFuc     11.2   6.5
            4   GlcNAc   11.2  -1.5
            5   Man       2.2  -1.5
            6   Man      -5.8   2.5
            7   Man      -5.8  -5.5
            8   GlcNAc  -14.8   2.5
            9   GlcNAc  -14.8  -5.5
            10  Gal     -23.8   2.5
            11  GalNAc  -24.8  -5.5
            12  S       -30.8  -5.5
EDGE        11
            1     2:b1    1:4  
            2     3:a1    2:6  
            3     4:b1    2:4  
            4     5:b1    4:4  
            5     6:a1    5:6  
            6     7:a1    5:3  
            7     8:b1    6:2  
            8     9:b1    7:2  
            9    10:b1    8:4  
            10   11:b1    9:4  
            11   12      11    
///
