ENTRY       G11971                      Glycan
NODE        12
            1   LRha     30.1   4.9
            2   Man      23.1   4.9
            3   Gal      16.1  -0.1
            4   Abe      15.6   9.9
            5   LRha      8.1  -0.1
            6   Man       0.1  -0.1
            7   Gal      -6.9  -5.1
            8   Abe      -7.6   4.6
            9   LRha    -14.9  -5.1
            10  Man     -22.9  -5.1
            11  Abe     -29.6  -0.1
            12  Gal     -29.7 -10.4
EDGE        11
            1     2:a1    1:4  
            2     3:a1    2:2  
            3     4:a1    2:3  
            4     5:a1    3:3  
            5     6:a1    5:4  
            6     7:a1    6:2  
            7     8:a1    6:3  
            8     9:a1    7:3  
            9    10:a1    9:4  
            10   11:a1   10:3  
            11   12:a1   10:2  
///
