ENTRY       G11983                      Glycan
NODE        12
            1   P        23.2  -1.5
            2   GlcN     17.2  -1.5
            3   GlcN      8.2  -1.5
            4   P         3.2  -4.5
            5   Kdo       0.2  -1.5
            6   Hep      -7.8   3.5
            7   Kdo      -7.8  -6.5
            8   Hep     -14.8   3.5
            9   Kdo     -15.8  -6.5
            10  P       -20.8   3.5
            11  Hep     -22.8   7.5
            12  Glc     -22.8  -0.5
EDGE        11
            1     2:a1    1    
            2     3:b1    2:6  
            3     4       3:4  
            4     5:2     3:6  
            5     6:1     5:5  
            6     7:2     5:4  
            7     8:1     6:3  
            8     9:2     7:4  
            9    10       8:4  
            10   11:1     8:7  
            11   12:1     8:3  
///
