ENTRY       G12000                      Glycan
NODE        11
            1   GlcN       27  -0.1
            2   S          22  -3.1
            3   GlcA       18  -0.1
            4   GlcNAc      9  -0.1
            5   S           3   2.9
            6   LIdoA       0  -0.1
            7   GlcN       -8  -0.1
            8   S         -13   2.9
            9   S         -13  -3.1
            10  L4-en-thrHexA   -19  -0.1
            11  S         -28  -0.1
EDGE        10
            1     2       1:2  
            2     3:b1    1:4  
            3     4:a1    3:4  
            4     5       4:6  
            5     6:a1    4:4  
            6     7:a1    6:4  
            7     8       7:6  
            8     9       7:2  
            9    10:a1    7:4  
            10   11      10:2  
///
