ENTRY       G12181                      Glycan
NODE        7
            1   *        26.9   0.4
            2   Ribf     19.9   0.4
            3   GalA     11.9   0.4
            4   QuiNAc3N   1.9   0.4
            5   GlcNAc   -9.1   0.4
            6   Gal     -18.1   0.4
            7   *       -26.1   0.4
EDGE        6
            1     2:b1    1    
            2     3:a1    2:2  
            3     4:b1    3:4  
            4     5:b1    4:4  
            5     6:b1    5:3  
            6     7       6:4  
BRACKET     1 -22.1   2.4 -22.1  -1.6
            1  23.9  -1.6  23.9   2.4
            1 n
///
