ENTRY       G12168                      Glycan
NODE        12
            1   Ino-P    19.2  -2.5
            2   GlcN     11.2  -2.5
            3   Man       3.2  -2.5
            4   P         0.2  -6.5
            5   Man      -3.8   2.5
            6   EtN      -3.8  -6.5
            7   GalNAc   -4.8  -2.5
            8   Man     -11.8   2.5
            9   Gal     -11.8  -2.5
            10  P       -15.8   6.5
            11  EtN     -18.8   6.5
            12  Neu5Ac  -19.8  -2.5
EDGE        11
            1     2:a1    1:6  
            2     3:a1    2:4  
            3     4       3    
            4     5:a1    3:6  
            5     7:1     3    
            6     6       4    
            7     8:a1    5:2  
            8     9:1     7    
            9    10       8    
            10   12:a2    9    
            11   11      10    
///
