ENTRY       G12123                      Glycan
NODE        8
            1   Ino-P    20.2  -1.5
            2   GlcN     12.2  -1.5
            3   Man       4.2  -1.5
            4   Man      -3.8  -1.5
            5   Man     -11.8  -1.5
            6   P       -15.8   1.5
            7   Man     -19.8  -1.5
            8   EtN     -20.8   1.5
EDGE        7
            1     2:a1    1:6  
            2     3:a1    2:4  
            3     4:a1    3:6  
            4     5:a1    4:2  
            5     6       5    
            6     7:a1    5:2  
            7     8       6    
///
