ENTRY       G12270                      Glycan
NODE        6
            1   P        15.2   1.5
            2   GlcN      9.2   1.5
            3   GlcN      0.2   1.5
            4   P        -4.8  -1.5
            5   Kdo      -8.8   1.5
            6   P       -15.8   1.5
EDGE        5
            1     2:a1    1    
            2     3:b1    2:6  
            3     4       3:4  
            4     5:a2    3:6  
            5     6       5:5  
///
