ENTRY       G12218                      Glycan
NODE        6
            1   *          20     0
            2   Glc        12     0
            3   Gal         4     0
            4   Gal        -4     0
            5   Man       -12     0
            6   *         -20     0
EDGE        5
            1     2:a1    1    
            2     3:a1    2:2  
            3     4:a1    3:3  
            4     5:a1    4:3  
            5     6       5:3  
BRACKET     1 -17.0   2.0 -17.0  -2.0
            1  16.0  -2.0  16.0   2.0
            1 n
///
