ENTRY       G12463                      Glycan
NODE        3
            1   GlcN3N      9     0
            2   GlcN3N     -2     0
            3   P         -10     0
EDGE        2
            1     2:b1    1:6  
            2     3       2:4  
///
