ENTRY       G12484                      Glycan
NODE        3
            1   Ser        10     0
            2   GlcNAc      0     0
            3   Gal       -10     0
EDGE        2
            1     2:a1    1:3  
            2     3:b1    2:4  
///
