ENTRY       G12427                      Glycan
NODE        3
            1   Araf       10     0
            2   Gal         0     0
            3   Gal       -10     0
EDGE        2
            1     2:b1    1:3  
            2     3:b1    2:4  
///
