ENTRY       G12452                      Glycan
NODE        3
            1   P          10     0
            2   Rib         2     0
            3   GlcNAc    -10     0
EDGE        2
            1     2:1     1    
            2     3:b1    2:4  
///
