ENTRY       G12461                      Glycan
NODE        3
            1   Glc         8     0
            2   Gal        -1     0
            3   P          -9     0
EDGE        2
            1     2:b1    1:4  
            2     3       2:3  
///
