ENTRY       G12597                      Glycan
NODE        6
            1   *          17    -4
            2   Galf        9    -4
            3   GlcA        2    -7
            4   Galf       -3     1
            5   GlcA      -10    -2
            6   *         -18     7
EDGE        5
            1     2:b1    1    
            2     3:a     2:2  
            3     4:b1    2:6  
            4     5:a     4:2  
            5     6       4:6  
BRACKET     1 -12.0   6.0 -12.0  -4.0
            1   2.0  -4.0   2.0   6.0
            1 n
            2 -13.0   9.0 -13.0  -9.0
            2  14.0  -9.0  14.0   9.0
            2 m
///
