ENTRY       G12644                      Glycan
NODE        7
            1   *          23     2
            2   Man        11     2
            3   GalA        4     2
            4   Glc        -3     2
            5   Glc       -10     2
            6   Gal       -17     6
            7   *         -24    -6
EDGE        6
            1     2:a1    1    
            2     3:a1    2:3  
            3     4:b1    3:3  
            4     5:a1    4:3  
            5     6:a1    5:6  
            6     7       5:3  
BRACKET     1 -20.0   8.0 -20.0  -6.0
            1  15.0  -6.0  15.0   8.0
            1 n
///
