ENTRY       G12607                      Glycan
NODE        7
            1   *          20     0
            2   LRha       11     0
            3   Glc         3     0
            4   Gal        -5     0
            5   Glc       -12     4
            6   Glc       -12    -4
            7   *         -21     4
EDGE        6
            1     2:b1    1    
            2     3:a1    2:3  
            3     4:b1    3:4  
            4     5:b1    4:4  
            5     6:a1    4:2  
            6     7       5:4  
BRACKET     1 -16.0   7.0 -16.0  -6.0
            1  16.0  -6.0  16.0   7.0
            1 n
///
