ENTRY       G12772                      Glycan
NODE        8
            1   *        21.8  -0.1
            2   Glc      13.9  -0.1
            3   Gal       7.9  -0.1
            4   Man       1.9  -0.1
            5   *        -5.2   4.7
            6   LRha     -6.1  -5.1
            7   Galf    -13.1  -5.1
            8   Qui3NAc -21.1  -5.1
EDGE        7
            1     2:b1    1    
            2     3:b1    2:4  
            3     4:a1    3:4  
            4     5       4:4  
            5     6:a1    4:3  
            6     7:b1    6:4  
            7     8:b1    7:6  
BRACKET     1  -2.9   4.4  -2.9   0.2
            1  17.8  -2.7  17.8   1.6
            1 n
///
