ENTRY       G12700                      Glycan
NODE        8
            1   *          22     0
            2   Gal        13     0
            3   Gal         6     0
            4   Gal        -1     0
            5   Gal        -7     4
            6   GlcA       -7    -4
            7   Glc       -14    -4
            8   *         -23     4
EDGE        7
            1     2:b1    1    
            2     3:b1    2:6  
            3     4:b1    3:4  
            4     5:b1    4:3  
            5     6:a1    4:2  
            6     8       5:4  
            7     7:b1    6:4  
BRACKET     1 -17.0   7.0 -17.0  -7.0
            1  17.0  -7.0  17.0   7.0
            1 n
///
