ENTRY       G12838                      Glycan
NODE        13
            1   *          20    -2
            2   Man        12    -2
            3   Man         6     2
            4   Xyl         6    -6
            5   Xyl         0    -6
            6   Man        -1     2
            7   Xyl        -7     6
            8   GlcA       -7    -2
            9   GlcA3/4Ac    -9    -6
            10  *         -12     2
            11  Xyl       -13     6
            12  Man6Ac    -15    -2
            13  Man6Ac    -21     6
EDGE        12
            1     2:a1    1    
            2     3:a1    2:3  
            3     4:b1    2:2  
            4     6:a1    3:3  
            5     5:b1    4:3  
            6     9:b1    5:4  
            7     7:b1    6:4  
            8     8:b1    6:2  
            9    10       6:3  
            10   11:b1    7:4  
            11   12:b1    8:4  
            12   13:a1   11:2  
BRACKET     1  -7.0   4.0  -7.0   0.3
            1  16.0  -4.0  16.0  -0.1
            1 n
///
