ENTRY       G12848                      Glycan
NODE        8
            1   *        28.5  -0.1
            2   GlcNAc   19.6  -0.1
            3   GlcA     11.6  -0.1
            4   Man       1.6  -0.1
            5   Man6Ac   -8.4  -0.1
            6   Gal     -18.4   4.9
            7   LRha    -18.4  -5.1
            8   *       -28.4   4.9
EDGE        7
            1     2:a1    1    
            2     3:b1    2:3  
            3     4:b1    3:4  
            4     5:b1    4:3  
            5     6:b1    5:4  
            6     7:a1    5:3  
            7     8       6:2  
BRACKET     1 -23.1   7.5 -23.1   2.5
            1  25.4  -2.6  25.4   2.4
            1 n
///
