ENTRY       G12817                      Glycan
NODE        8
            1   *          24     3
            2   LRha       16     3
            3   Glc         9     3
            4   GlcA        2     3
            5   Glc        -5     3
            6   Glc       -11     6
            7   Glc       -18     6
            8   *         -25    -5
EDGE        7
            1     2:a1    1    
            2     3:b1    2:4  
            3     4:b1    3:4  
            4     5:b1    4:4  
            5     6:a1    5:6  
            6     8       5:3  
            7     7:b1    6:6  
BRACKET     1 -20.0  10.0 -20.0  -6.0
            1  20.0  -6.0  20.0  10.0
            1 n
///
