ENTRY       G12841                      Glycan
NODE        22
            1   GlcN       51    -1
            2   P          47    -4
            3   GlcN       44    -1
            4   Kdo        38    -1
            5   Man        33     2
            6   Kdo        33    -4
            7   Man        27     2
            8   GlcN       27    -4
            9   P          23    -4
            10  Man        22     5
            11  Gal        22    -1
            12  Kdo        21     2
            13  LAra4N     18    -4
            14  Gal        16     5
            15  GalNAc      9     5
            16  gro-galHep     0     5
            17  Gal        -8     5
            18  ManNAc    -15     5
            19  Man       -22     5
            20  GlcNAc  -29.4     5
            21  gro-galHep4Me   -40     5
            22  LFuc4Me   -51     5
EDGE        21
            1     2       1:1  
            2     3:b1    1:6  
            3     4:a2    3:6  
            4     5:a1    4:5  
            5     6:a2    4:4  
            6     7:a1    5:4  
            7     8:a1    6:4  
            8    10:a1    7:6  
            9    11:a1    7:2  
            10   12:a2    7:3  
            11    9       8:6  
            12   13:b1    9    
            13   14:a1   10:2  
            14   15:b1   14:3  
            15   16:b1   15:3  
            16   17:a1   16:4  
            17   18:b1   17:4  
            18   19:b1   18:3  
            19   20:a1   19:2  
            20   21:b1   20:3  
            21   22:a1   21:2  
///
