ENTRY       G12840                      Glycan
NODE        7
            1   *          15     2
            2   GlcA        7     2
            3   Man         0     5
            4   Xyl         0    -1
            5   Man        -7    -1
            6   Glc       -13     2
            7   *         -15    -5
EDGE        6
            1     2:a1    1    
            2     3:a1    2:4  
            3     4:b1    2:3  
            4     5:a1    4:3  
            5     6:b1    5:4  
            6     7       5:3  
BRACKET     1 -12.0  -2.0 -12.0  -5.5
            1  11.0   0.7  11.0   4.0
            1 n
///
