ENTRY       G12982                      Glycan
NODE        6
            1   *        20.4   0.2
            2   GalNAc   12.2   0.1
            3   GalNAc    2.8   0.1
            4   Gal      -5.6   0.1
            5   LFuc    -13.2   0.1
            6   *       -20.7   0.1
EDGE        5
            1     2:a1    1    
            2     3:a1    2:3  
            3     4:b1    3:3  
            4     5:a1    4:2  
            5     6       5:2  
BRACKET     1 -18.4   1.4 -18.4  -1.4
            1  17.9  -1.4  17.9   1.4
            1 n
///
