ENTRY       G12948                      Glycan
NODE        7
            1   *        20.5  -1.2
            2   GalNAc   11.3  -1.1
            3   Gal       2.5  -1.2
            4   GlcNAc   -6.3  -1.2
            5   Gal     -13.8  -4.8
            6   *       -16.9   4.9
            7   Col     -21.2  -4.8
EDGE        6
            1     2:b1    1    
            2     3:a1    2:3  
            3     4:b1    3:3  
            4     5:b1    4:3  
            5     6       4:6  
            6     7:a1    5:2  
BRACKET     1 -11.6   3.3 -11.6  -0.5
            1  16.1  -3.0  16.1   0.8
            1 n
///
