ENTRY       G12963                      Glycan
NODE        7
            1   *        15.8  -1.7
            2   GalNAc    7.7  -1.7
            3   Glc      -0.7  -1.7
            4   Gal      -7.1     2
            5   GlcNAc   -8.2  -5.3
            6   Gal     -13.7   5.8
            7   *       -16.6  -2.8
EDGE        6
            1     2:b1    1    
            2     3:b1    2:3  
            3     4:b1    3:4  
            4     5:b1    3:2  
            5     6:b1    4:4  
            6     7       4:3  
BRACKET     1 -11.7   1.3 -11.7  -1.6
            1  12.4  -3.3  12.4  -0.4
            1 n
///
