ENTRY       G12926                      Glycan
NODE        7
            1   *        23.4   0.9
            2   GlcNAc     13   0.9
            3   Gal         5   0.9
            4   LRha       -3   0.9
            5   LRha      -13   0.9
            6   *       -20.8   4.8
            7   ManNAc    -23  -4.1
EDGE        6
            1     2:b1    1    
            2     3:a1    2:3  
            3     4:a1    3:2  
            4     5:a1    4:2  
            5     6       5:3  
            6     7:b1    5:2  
BRACKET     1 -17.5   4.5 -17.5   1.5
            1  19.3  -0.6  19.3   2.4
            1 n
///
