ENTRY       G12943                      Glycan
NODE        8
            1   *        25.1   0.1
            2   GlcNAc   16.5   0.1
            3   LRha        8     0
            4   LRha      0.2   0.1
            5   LRha     -7.7   0.1
            6   LRha    -15.4   0.1
            7   *       -23.5   3.9
            8   GalNAcAN -24.5  -3.8
EDGE        7
            1     2:b1    1    
            2     3:a1    2:3  
            3     4:a1    3:2  
            4     5:a1    4:3  
            5     6:a1    5:2  
            6     7       6:3  
            7     8:a1    6:2  
BRACKET     1 -19.9   3.9 -19.9   0.0
            1  21.3  -2.0  21.3   1.8
            1 n
///
