ENTRY       G12997                      Glycan
NODE        7
            1   *        20.5  -0.2
            2   FucNAc   12.7  -0.2
            3   Gal       3.6  -0.3
            4   Gal      -3.7   3.5
            5   LRha     -3.7  -4.3
            6   Qui3NAc -12.8  -4.3
            7   *       -20.8  -4.3
EDGE        6
            1     2:a1    1    
            2     3:b1    2:3  
            3     4:a1    3:6  
            4     5:a1    3:3  
            5     6:b1    5:3  
            6     7       6:2  
BRACKET     1 -17.3  -2.6 -17.3  -6.5
            1  17.3  -2.4  17.3   1.5
            1 n
///
