ENTRY       G12928                      Glycan
NODE        7
            1   *        22.5  -0.1
            2   GlcNAc     13  -0.1
            3   Gal         5  -0.1
            4   LRha       -3  -0.1
            5   LRha      -12  -0.1
            6   *       -20.7   4.2
            7   ManNAc    -22  -5.1
EDGE        6
            1     2:b1    1    
            2     3:a1    2:3  
            3     4:a1    3:3  
            4     5:a1    4:2  
            5     6       5:3  
            6     7:b1    5:2  
BRACKET     1 -17.1   3.7 -17.1   0.7
            1  19.0  -1.6  19.0   1.4
            1 n
///
