ENTRY       G12977                      Glycan
NODE        7
            1   *        23.3  -0.1
            2   GalNAc   15.1  -0.1
            3   Gal       6.9  -0.1
            4   Glc      -0.1  -0.2
            5   LRha     -7.7  -0.2
            6   GalNAc  -16.3  -0.2
            7   *       -24.1  -0.2
EDGE        6
            1     2:a1    1    
            2     3:b1    2:3  
            3     4:a1    3:4  
            4     5:a1    4:4  
            5     6:b1    5:3  
            6     7       6:4  
BRACKET     1 -20.7   1.2 -20.7  -1.9
            1  19.9  -1.6  19.9   1.5
            1 n
///
