ENTRY       G12947                      Glycan
NODE        4
            1   *        18.1  -0.4
            2   6dmanHep   6.2  -0.4
            3   Fucf2Ac  -6.5  -0.4
            4   *       -17.3  -0.4
EDGE        3
            1     2:b1    1    
            2     3:b1    2:3  
            3     4       3:3  
BRACKET     1 -12.7   1.5 -12.7  -2.4
            1  14.2  -2.1  14.2   1.8
            1 n
///
