ENTRY       G12939                      Glycan
NODE        8
            1   *        22.7   2.1
            2   GlcNAc   12.4   2.1
            3   Glc       4.1   5.8
            4   GalNAc    3.3  -2.1
            5   Gal      -5.7  -2.1
            6   Glc     -12.5   2.1
            7   GlcNAc  -13.6  -6.4
            8   *         -23   2.1
EDGE        7
            1     2:b1    1    
            2     3:a1    2:6  
            3     4:a1    2:3  
            4     5:b1    4:3  
            5     6:a1    5:4  
            6     7:b1    5:3  
            7     8       6:6  
BRACKET     1 -16.7   3.9 -16.7   0.0
            1  18.1  -0.1  18.1   3.8
            1 n
///
