ENTRY       G12969                      Glycan
NODE        6
            1   *          20   0.1
            2   GlcNAc   11.6     0
            3   Man       3.1     0
            4   Man      -4.2     0
            5   Man     -11.8     0
            6   *       -19.1     0
EDGE        5
            1     2:a1    1    
            2     3:b1    2:3  
            3     4:a1    3:2  
            4     5:a1    4:2  
            5     6       5:6  
BRACKET     1 -15.2   1.3 -15.2  -1.6
            1  16.2  -1.5  16.2   1.4
            1 n
///
