ENTRY       G12965                      Glycan
NODE        7
            1   *        26.4   0.3
            2   GlcNAc   18.4   0.3
            3   GalA      9.9   0.3
            4   GalNAc    1.3   0.3
            5   GalA6N   -8.3   0.3
            6   Qui3NAc -18.3   0.3
            7   *       -25.7   0.3
EDGE        6
            1     2:a1    1    
            2     3:b1    2:3  
            3     4:a1    3:4  
            4     5:a1    4:4  
            5     6:b1    5:4  
            6     7       6:2  
BRACKET     1 -23.0   1.8 -23.0  -1.6
            1  23.4  -1.6  23.4   1.8
            1 n
///
