ENTRY       G12914                      Glycan
NODE        10
            1   *        26.2  -1.5
            2   Rib-ol   18.2  -1.5
            3   P        13.2   1.5
            4   GalNAc    9.2  -1.5
            5   PCho      3.2   1.5
            6   GalNAc    0.2  -1.5
            7   PCho     -5.8   1.5
            8   6dGalNAc4N  -9.8  -1.5
            9   Gal     -18.8  -1.5
            10  *       -26.8  -1.5
EDGE        9
            1     2       1    
            2     3       2:5  
            3     4:b1    2:1  
            4     5       4:6  
            5     6:a1    4:3  
            6     7       6:6  
            7     8:a1    6:4  
            8     9:b1    8:3  
            9    10       9:6  
BRACKET     1 -21.8   0.5 -21.8  -3.5
            1  22.2  -3.5  22.2   0.5
            1 n
///
