ENTRY       G13006                      Glycan
NODE        7
            1   *        26.2  -0.2
            2   GlcNAc   18.1  -0.2
            3   Galf2Ac   8.7  -0.2
            4   GlcNAc   -0.8  -0.2
            5   P       -10.8  -0.2
            6   Gro     -19.1  -0.2
            7   *         -27  -0.2
EDGE        6
            1     2:a1    1    
            2     3:b1    2:3  
            3     4:b1    3:3  
            4     5       4:4  
            5     6:1     5    
            6     7       6:2  
BRACKET     1 -22.9   0.9 -22.9  -1.5
            1  22.6  -1.5  22.6   0.9
            1 n
///
