ENTRY       G13012                      Glycan
NODE        8
            1   *        27.2  -0.3
            2   GlcNAc   19.3  -0.3
            3   LFucNAc   9.4  -0.3
            4   Glc       0.4  -0.4
            5   P        -4.1  -0.4
            6   Glc6Ac  -10.2  -0.4
            7   LFucNAc -20.2  -0.4
            8   *       -28.1  -0.4
EDGE        7
            1     2:a1    1    
            2     3:a1    2:3  
            3     4:a1    3:3  
            4     5       4:4  
            5     6:a1    5    
            6     7:a1    6:4  
            7     8       7:3  
BRACKET     1 -24.6   1.4 -24.6  -2.5
            1  24.2  -2.2  24.2   1.7
            1 n
///
