ENTRY       G13049                      Glycan
NODE        28
            1   Asn      44.4    -2
            2   GlcNAc   36.4    -2
            3   GlcNAc   27.4    -2
            4   Man      18.4    -2
            5   Man      10.4     3
            6   Man      10.4    -8
            7   Man       2.4     7
            8   Man       2.4    -1
            9   Man       2.4    -4
            10  Man       2.4   -13
            11  Man      -5.6     7
            12  Man      -5.6    -4
            13  Man      -5.6   -13
            14  Man     -13.6     2
            15  Man     -13.7   -10
            16  P       -19.7    -6
            17  Man     -21.6     6
            18  Man     -21.7    -2
            19  Man     -21.7   -14
            20  Man     -25.7    -6
            21  Man     -29.6    10
            22  Man     -29.6     2
            23  Man     -29.7    -2
            24  Man     -37.5     6
            25  Man     -37.6    14
            26  Man     -37.6     2
            27  Man     -44.5     6
            28  Man     -44.6    14
EDGE        27
            1     2:b1    1    
            2     3:b1    2:4  
            3     4:b1    3:4  
            4     5:a1    4:6  
            5     6:a1    4:3  
            6     7:a1    5:6  
            7     8:a1    5:3  
            8     9:a1    6:6  
            9    10:a1    6:2  
            10   11:a1    7:2  
            11   12:a1    9:6  
            12   13:a1   10:2  
            13   14:a1   12:6  
            14   15:a1   12:2  
            15   17:a1   14:6  
            16   18:a1   14:2  
            17   16      15:6  
            18   19:a1   15:2  
            19   20:1    16    
            20   21:a1   17:6  
            21   22:a1   17:2  
            22   23:a1   18:2  
            23   24:a1   21:2  
            24   25:a1   21:6  
            25   26:a1   22:2  
            26   27:a1   24:2  
            27   28:a1   25:6  
BRACKET     1 -33.1  13.7 -33.1   7.7
            1  -2.2  -7.3  -2.2  -1.3
            1 n
///
