ENTRY       G13116                      Glycan
NODE        30
            1   Ino-P    67.6  13.4
            2   Man        61   7.6
            3   acyl     60.9  17.8
            4   Man      57.6  13.4
            5   acyl     53.8   7.6
            6   Man      47.6  13.4
            7   Man      37.6  13.4
            8   Man      27.7  13.4
            9   Man      25.7  19.7
            10  Man      17.5  13.4
            11  Araf     17.5   7.9
            12  Araf      9.1   0.9
            13  Araf      1.4  -5.5
            14  Araf     -7.5 -12.2
            15  Araf       -9  -5.5
            16  Araf    -17.4 -19.6
            17  Araf    -17.5 -12.2
            18  Araf    -19.3  -5.5
            19  Araf    -27.4 -12.2
            20  Araf    -28.8  -5.5
            21  Araf    -36.7  -9.5
            22  Araf      -37  -1.3
            23  Araf    -37.1 -12.2
            24  Araf    -46.7  -9.5
            25  Araf    -46.8  -1.3
            26  Araf    -46.8 -12.2
            27  Ino-P   -56.4  -1.3
            28  Ino-P   -56.4  -9.5
            29  Araf    -57.3 -12.2
            30  Ino-P     -67 -12.2
EDGE        29
            1     2:a1    1:2  
            2     3       1:3  
            3     4:a1    1:6  
            4     5       2:6  
            5     6:a1    4:6  
            6     7:a1    6:6  
            7     8:a1    7:6  
            8     9:a1    8:2  
            9    10:a1    8:6  
            10   11      10    
            11   12:a1   11:5  
            12   13:a1   12:5  
            13   14:a1   13:5  
            14   15:a1   13:3  
            15   16:b1   14:2  
            16   17:a1   14:3  
            17   18:a1   15:5  
            18   19:a1   17:5  
            19   20:a1   18:5  
            20   23:a1   19:5  
            21   21:a1   20:3  
            22   22:a1   20:5  
            23   24:b1   21:2  
            24   25:b1   22:2  
            25   26:a1   23:5  
            26   28      24:5  
            27   27      25:5  
            28   29:b1   26:2  
            29   30      29:5  
BRACKET     1 -11.1  -4.6 -11.1  -6.4
            1  -6.2  -6.4  -6.2  -4.6
            1 w
            2 -19.8 -11.0 -19.8 -13.2
            2 -14.4 -13.3 -14.4 -11.1
            2 v
            3  34.8  15.2  34.8  11.8
            3  41.2  11.7  41.2  15.1
            3 n
            4  25.0  15.0  25.0  11.4
            4  31.1  11.4  31.1  15.0
            4 m
            5  -1.2  -6.1  -1.2  -8.3
            5   4.4  -4.1   4.4  -2.1
            5 p
            6   6.6   0.3   6.6  -2.4
            6  11.9   1.7  11.9   4.4
            6 o
            7 -10.1 -13.0 -10.1 -15.4
            7  -4.6 -11.2  -4.6  -8.8
            7 q
            8 -11.6 -14.5 -11.6 -17.3
            8  13.6   3.4  13.6   6.2
            8 r
            9  23.7  15.8  23.7  10.6
            9  42.6  10.5  42.6  15.7
            9 l
///
